<?xml version="1.0" encoding="UTF-8"?>
<svg xmlns="http://www.w3.org/2000/svg" xmlns:xlink="http://www.w3.org/1999/xlink" width="114.815pt" height="60.987pt" viewBox="0 0 114.815 60.987" version="1.1">
<defs>
<g>
<symbol overflow="visible" id="glyph0-0">
<path style="stroke:none;" d=""/>
</symbol>
<symbol overflow="visible" id="glyph0-1">
<path style="stroke:none;" d="M 4.734375 -2.3125 C 4.34375 -3.5 4.4375 -3.390625 4.078125 -4.390625 C 3.625 -5.625 3.515625 -5.71875 3.3125 -5.921875 C 3.0625 -6.15625 2.5625 -6.328125 2.0625 -6.328125 C 1.265625 -6.328125 0.875 -5.578125 0.875 -5.390625 C 0.875 -5.3125 0.953125 -5.265625 1.03125 -5.265625 C 1.140625 -5.265625 1.171875 -5.328125 1.1875 -5.390625 C 1.40625 -5.953125 1.84375 -6.03125 1.984375 -6.03125 C 2.390625 -6.03125 2.796875 -5 3.0625 -4.3125 C 3.40625 -3.4375 3.578125 -2.84375 3.953125 -1.453125 L 0.578125 2.390625 C 0.4375 2.546875 0.4375 2.609375 0.4375 2.625 C 0.4375 2.734375 0.515625 2.765625 0.578125 2.765625 C 0.625 2.765625 0.671875 2.734375 0.71875 2.703125 C 1.125 2.296875 2.015625 1.234375 2.375 0.796875 L 4.046875 -1.09375 C 4.75 1.125 4.75 1.140625 4.96875 1.671875 C 5.1875 2.21875 5.5 2.921875 6.71875 2.921875 C 7.53125 2.921875 7.90625 2.1875 7.90625 2 C 7.90625 1.890625 7.8125 1.859375 7.75 1.859375 C 7.625 1.859375 7.609375 1.921875 7.578125 2.03125 C 7.421875 2.4375 7.046875 2.640625 6.8125 2.640625 C 6.625 2.640625 6.390625 2.640625 5.765625 1.046875 C 5.390625 0.09375 5.0625 -1.0625 4.8125 -1.953125 L 8.21875 -5.828125 C 8.328125 -5.953125 8.34375 -5.96875 8.34375 -6.03125 C 8.34375 -6.125 8.28125 -6.171875 8.203125 -6.171875 C 8.15625 -6.171875 8.125 -6.171875 7.96875 -6.015625 Z M 4.734375 -2.3125 "/>
</symbol>
</g>
<clipPath id="clip1">
  <path d="M 50 0 L 96 0 L 96 60.988281 L 50 60.988281 Z M 50 0 "/>
</clipPath>
<clipPath id="clip2">
  <path d="M 0 3 L 103 3 L 103 60.988281 L 0 60.988281 Z M 0 3 "/>
</clipPath>
<clipPath id="clip3">
  <path d="M 12 0 L 114.816406 0 L 114.816406 58 L 12 58 Z M 12 0 "/>
</clipPath>
<clipPath id="clip4">
  <path d="M 101 35 L 114.816406 35 L 114.816406 51 L 101 51 Z M 101 35 "/>
</clipPath>
</defs>
<g id="surface1">
<path style="fill:none;stroke-width:0.99628;stroke-linecap:butt;stroke-linejoin:miter;stroke:rgb(0%,0%,0%);stroke-opacity:1;stroke-miterlimit:10;" d="M 52.925031 115.036906 L -52.926531 115.036906 C -55.12575 115.036906 -56.910906 113.25175 -56.910906 111.052531 L -56.910906 59.029094 C -56.910906 56.829875 -55.12575 55.044719 -52.926531 55.044719 L 52.925031 55.044719 C 55.12425 55.044719 56.909406 56.829875 56.909406 59.029094 L 56.909406 111.052531 C 56.909406 113.25175 55.12425 115.036906 52.925031 115.036906 Z M 52.925031 115.036906 " transform="matrix(1,0,0,-1,57.407,115.533)"/>
<path style="fill:none;stroke-width:0.3985;stroke-linecap:butt;stroke-linejoin:miter;stroke:rgb(69.999695%,0%,0%);stroke-opacity:1;stroke-dasharray:2.98883,2.98883;stroke-miterlimit:10;" d="M -51.024187 12.755719 L 51.026594 12.755719 " transform="matrix(1,0,0,-1,57.407,30.494)"/>
<g clip-path="url(#clip1)" clip-rule="nonzero">
<path style="fill:none;stroke-width:0.3985;stroke-linecap:butt;stroke-linejoin:miter;stroke:rgb(69.999695%,0%,0%);stroke-opacity:1;stroke-dasharray:2.98883,2.98883;stroke-miterlimit:10;" d="M -1.699969 25.513531 L 32.315656 -25.513813 " transform="matrix(1,0,0,-1,57.407,30.494)"/>
</g>
<g clip-path="url(#clip2)" clip-rule="nonzero">
<path style="fill:none;stroke-width:0.99628;stroke-linecap:butt;stroke-linejoin:miter;stroke:rgb(0%,0%,50%);stroke-opacity:1;stroke-miterlimit:10;" d="M -51.024187 12.755719 C -5.102312 12.755719 6.803938 12.755719 30.714094 -23.107563 " transform="matrix(1,0,0,-1,57.407,30.494)"/>
</g>
<path style=" stroke:none;fill-rule:nonzero;fill:rgb(0%,0%,50%);fill-opacity:1;" d="M 89.722656 56.007812 L 89.082031 50.878906 L 88.121094 53.601562 L 85.234375 53.441406 "/>
<g clip-path="url(#clip3)" clip-rule="nonzero">
<path style="fill:none;stroke-width:0.99628;stroke-linecap:butt;stroke-linejoin:miter;stroke:rgb(0%,0%,50%);stroke-opacity:1;stroke-miterlimit:10;" d="M 51.026594 -12.756 C 5.100813 -12.756 -6.801531 -12.756 -30.711687 23.107281 " transform="matrix(1,0,0,-1,57.407,30.494)"/>
</g>
<path style=" stroke:none;fill-rule:nonzero;fill:rgb(0%,0%,50%);fill-opacity:1;" d="M 25.089844 4.980469 L 25.730469 10.109375 L 26.695312 7.386719 L 29.578125 7.546875 "/>
<path style="fill:none;stroke-width:0.3985;stroke-linecap:butt;stroke-linejoin:miter;stroke:rgb(69.999695%,0%,0%);stroke-opacity:1;stroke-miterlimit:10;" d="M 21.260969 12.755719 C 21.260969 7.861187 18.7805 3.298687 14.678938 0.630719 " transform="matrix(1,0,0,-1,57.407,30.494)"/>
<g style="fill:rgb(69.999695%,0%,0%);fill-opacity:1;">
  <use xlink:href="#glyph0-1" x="82.771" y="29.636"/>
</g>
<path style="fill-rule:nonzero;fill:rgb(0%,0%,50%);fill-opacity:1;stroke-width:0.3985;stroke-linecap:butt;stroke-linejoin:miter;stroke:rgb(0%,0%,50%);stroke-opacity:1;stroke-miterlimit:10;" d="M -49.324969 12.755719 C -49.324969 13.697125 -50.086687 14.458844 -51.024187 14.458844 C -51.965594 14.458844 -52.727312 13.697125 -52.727312 12.755719 C -52.727312 11.818219 -51.965594 11.0565 -51.024187 11.0565 C -50.086687 11.0565 -49.324969 11.818219 -49.324969 12.755719 Z M -49.324969 12.755719 " transform="matrix(1,0,0,-1,57.407,30.494)"/>
<path style=" stroke:none;fill-rule:nonzero;fill:rgb(0%,0%,50%);fill-opacity:1;" d="M 110.132812 43.25 C 110.132812 42.3125 109.371094 41.550781 108.433594 41.550781 C 107.492188 41.550781 106.730469 42.3125 106.730469 43.25 C 106.730469 44.191406 107.492188 44.949219 108.433594 44.949219 C 109.371094 44.949219 110.132812 44.191406 110.132812 43.25 Z M 110.132812 43.25 "/>
<g clip-path="url(#clip4)" clip-rule="nonzero">
<path style="fill:none;stroke-width:0.3985;stroke-linecap:butt;stroke-linejoin:miter;stroke:rgb(0%,0%,50%);stroke-opacity:1;stroke-miterlimit:10;" d="M 52.725813 -12.756 C 52.725813 -11.8185 51.964094 -11.056781 51.026594 -11.056781 C 50.085188 -11.056781 49.323469 -11.8185 49.323469 -12.756 C 49.323469 -13.697406 50.085188 -14.455219 51.026594 -14.455219 C 51.964094 -14.455219 52.725813 -13.697406 52.725813 -12.756 Z M 52.725813 -12.756 " transform="matrix(1,0,0,-1,57.407,30.494)"/>
</g>
</g>
</svg>
