<?xml version="1.0" encoding="UTF-8"?>
<svg xmlns="http://www.w3.org/2000/svg" xmlns:xlink="http://www.w3.org/1999/xlink" width="103.254pt" height="47.768pt" viewBox="0 0 103.254 47.768" version="1.1">
<defs>
<g>
<symbol overflow="visible" id="glyph0-0">
<path style="stroke:none;" d=""/>
</symbol>
<symbol overflow="visible" id="glyph0-1">
<path style="stroke:none;" d="M 5.9375 -1.640625 C 5.984375 -1.015625 6.09375 -0.5625 6.15625 -0.375 C 6.265625 0.078125 6.3125 0.296875 6.734375 0.296875 C 7.1875 0.296875 7.953125 -0.15625 7.953125 -0.34375 C 7.953125 -0.40625 7.921875 -0.421875 7.859375 -0.421875 C 7.734375 -0.421875 7.53125 -0.3125 7.5 -0.296875 C 7.421875 -0.25 7.40625 -0.25 7.390625 -0.25 C 7.109375 -0.25 7.046875 -0.515625 6.921875 -1.109375 C 6.859375 -1.453125 6.765625 -1.84375 6.6875 -3.203125 C 6.625 -4.234375 6.578125 -5.25 6.578125 -6.265625 C 6.578125 -6.5 6.59375 -6.765625 6.59375 -7 C 6.59375 -7.15625 6.59375 -7.203125 6.484375 -7.203125 C 6.34375 -7.203125 5.9375 -7.03125 5.75 -6.765625 L 5.6875 -6.65625 C 4.890625 -4.96875 4.15625 -3.765625 3.640625 -2.953125 C 3.046875 -2.046875 2.015625 -0.421875 1.46875 -0.421875 C 1.109375 -0.421875 0.796875 -0.65625 0.703125 -1.015625 C 0.703125 -1.03125 0.671875 -1.09375 0.640625 -1.09375 C 0.484375 -1.09375 0.265625 -0.625 0.265625 -0.34375 C 0.265625 0.0625 0.703125 0.5 1.171875 0.5 C 1.859375 0.5 3 -1.296875 3.21875 -1.640625 Z M 5.734375 -5.96875 L 5.734375 -5.390625 C 5.734375 -4.8125 5.75 -4.234375 5.78125 -3.65625 C 5.796875 -3.453125 5.828125 -2.71875 5.875 -2.1875 L 4.0625 -2.1875 C 3.890625 -2.1875 3.75 -2.1875 3.484375 -2.03125 C 4.1875 -3.109375 4.765625 -4.140625 4.828125 -4.25 C 5.328125 -5.140625 5.59375 -5.71875 5.71875 -5.96875 Z M 5.734375 -5.96875 "/>
</symbol>
<symbol overflow="visible" id="glyph1-0">
<path style="stroke:none;" d=""/>
</symbol>
<symbol overflow="visible" id="glyph1-1">
<path style="stroke:none;" d="M 2.703125 -2.78125 C 2.578125 -2.71875 2.515625 -2.609375 2.515625 -2.46875 C 2.515625 -2.28125 2.640625 -2.140625 2.84375 -2.140625 C 3.03125 -2.140625 3.171875 -2.265625 3.171875 -2.484375 C 3.171875 -3.109375 2.203125 -3.109375 2.015625 -3.109375 C 0.96875 -3.109375 0.328125 -2.3125 0.328125 -1.5 C 0.328125 -0.625 1.0625 0.0625 1.984375 0.0625 C 3.015625 0.0625 3.265625 -0.75 3.265625 -0.84375 C 3.265625 -0.921875 3.171875 -0.921875 3.140625 -0.921875 C 3.046875 -0.921875 3.046875 -0.90625 3.015625 -0.796875 C 2.859375 -0.375 2.484375 -0.15625 2.0625 -0.15625 C 1.578125 -0.15625 0.953125 -0.515625 0.953125 -1.515625 C 0.953125 -2.390625 1.390625 -2.890625 2.03125 -2.890625 C 2.125 -2.890625 2.453125 -2.890625 2.703125 -2.78125 Z M 2.703125 -2.78125 "/>
</symbol>
<symbol overflow="visible" id="glyph1-2">
<path style="stroke:none;" d="M 1.4375 -4.84375 L 0.390625 -4.765625 L 0.390625 -4.515625 C 0.859375 -4.515625 0.90625 -4.453125 0.90625 -4.125 L 0.90625 -0.546875 C 0.90625 -0.25 0.84375 -0.25 0.390625 -0.25 L 0.390625 0 C 0.40625 0 0.890625 -0.03125 1.171875 -0.03125 C 1.4375 -0.03125 1.6875 -0.015625 1.953125 0 L 1.953125 -0.25 C 1.5 -0.25 1.4375 -0.25 1.4375 -0.546875 Z M 1.4375 -4.84375 "/>
</symbol>
<symbol overflow="visible" id="glyph2-0">
<path style="stroke:none;" d=""/>
</symbol>
<symbol overflow="visible" id="glyph2-1">
<path style="stroke:none;" d="M 6.84375 -3.265625 C 7 -3.265625 7.1875 -3.265625 7.1875 -3.453125 C 7.1875 -3.65625 7 -3.65625 6.859375 -3.65625 L 0.890625 -3.65625 C 0.75 -3.65625 0.5625 -3.65625 0.5625 -3.453125 C 0.5625 -3.265625 0.75 -3.265625 0.890625 -3.265625 Z M 6.859375 -1.328125 C 7 -1.328125 7.1875 -1.328125 7.1875 -1.53125 C 7.1875 -1.71875 7 -1.71875 6.84375 -1.71875 L 0.890625 -1.71875 C 0.75 -1.71875 0.5625 -1.71875 0.5625 -1.53125 C 0.5625 -1.328125 0.75 -1.328125 0.890625 -1.328125 Z M 6.859375 -1.328125 "/>
</symbol>
<symbol overflow="visible" id="glyph2-2">
<path style="stroke:none;" d="M 4.078125 -2.296875 L 6.859375 -2.296875 C 7 -2.296875 7.1875 -2.296875 7.1875 -2.5 C 7.1875 -2.6875 7 -2.6875 6.859375 -2.6875 L 4.078125 -2.6875 L 4.078125 -5.484375 C 4.078125 -5.625 4.078125 -5.8125 3.875 -5.8125 C 3.671875 -5.8125 3.671875 -5.625 3.671875 -5.484375 L 3.671875 -2.6875 L 0.890625 -2.6875 C 0.75 -2.6875 0.5625 -2.6875 0.5625 -2.5 C 0.5625 -2.296875 0.75 -2.296875 0.890625 -2.296875 L 3.671875 -2.296875 L 3.671875 0.5 C 3.671875 0.640625 3.671875 0.828125 3.875 0.828125 C 4.078125 0.828125 4.078125 0.640625 4.078125 0.5 Z M 4.078125 -2.296875 "/>
</symbol>
<symbol overflow="visible" id="glyph3-0">
<path style="stroke:none;" d=""/>
</symbol>
<symbol overflow="visible" id="glyph3-1">
<path style="stroke:none;" d="M 1.90625 -0.53125 C 1.90625 -0.8125 1.671875 -1.0625 1.390625 -1.0625 C 1.09375 -1.0625 0.859375 -0.8125 0.859375 -0.53125 C 0.859375 -0.234375 1.09375 0 1.390625 0 C 1.671875 0 1.90625 -0.234375 1.90625 -0.53125 Z M 1.90625 -0.53125 "/>
</symbol>
</g>
<clipPath id="clip1">
  <path d="M 19 13 L 54 13 L 54 47.769531 L 19 47.769531 Z M 19 13 "/>
</clipPath>
<clipPath id="clip2">
  <path d="M 19 23 L 54 23 L 54 47.769531 L 19 47.769531 Z M 19 23 "/>
</clipPath>
<clipPath id="clip3">
  <path d="M 25 23 L 71 23 L 71 47.769531 L 25 47.769531 Z M 25 23 "/>
</clipPath>
<clipPath id="clip4">
  <path d="M 25 18 L 71 18 L 71 47.769531 L 25 47.769531 Z M 25 18 "/>
</clipPath>
<clipPath id="clip5">
  <path d="M 42 23 L 88 23 L 88 47.769531 L 42 47.769531 Z M 42 23 "/>
</clipPath>
<clipPath id="clip6">
  <path d="M 42 18 L 88 18 L 88 47.769531 L 42 47.769531 Z M 42 18 "/>
</clipPath>
<clipPath id="clip7">
  <path d="M 59 13 L 94 13 L 94 47.769531 L 59 47.769531 Z M 59 13 "/>
</clipPath>
<clipPath id="clip8">
  <path d="M 59 23 L 94 23 L 94 47.769531 L 59 47.769531 Z M 59 23 "/>
</clipPath>
</defs>
<g id="surface1">
<g style="fill:rgb(0%,0%,0%);fill-opacity:1;">
  <use xlink:href="#glyph0-1" x="1.494" y="13.076"/>
</g>
<g style="fill:rgb(0%,0%,0%);fill-opacity:1;">
  <use xlink:href="#glyph1-1" x="9.449" y="14.57"/>
  <use xlink:href="#glyph1-2" x="12.990993" y="14.57"/>
</g>
<g style="fill:rgb(0%,0%,0%);fill-opacity:1;">
  <use xlink:href="#glyph2-1" x="18.512" y="13.076"/>
</g>
<path style="fill:none;stroke-width:0.99628;stroke-linecap:butt;stroke-linejoin:miter;stroke:rgb(0%,50%,0%);stroke-opacity:1;stroke-miterlimit:10;" d="M 14.172781 -9.920844 L 19.84075 0.00103125 " transform="matrix(1,0,0,-1,13.878,10.419)"/>
<path style="fill:none;stroke-width:0.99628;stroke-linecap:butt;stroke-linejoin:miter;stroke:rgb(0%,50%,0%);stroke-opacity:1;stroke-miterlimit:10;" d="M 14.172781 9.922906 L 19.84075 0.00103125 " transform="matrix(1,0,0,-1,13.878,10.419)"/>
<path style="fill:none;stroke-width:0.99628;stroke-linecap:butt;stroke-linejoin:miter;stroke:rgb(0%,50%,0%);stroke-opacity:1;stroke-miterlimit:10;" d="M 19.84075 0.00103125 L 25.512625 -9.920844 " transform="matrix(1,0,0,-1,13.878,10.419)"/>
<path style="fill:none;stroke-width:0.99628;stroke-linecap:butt;stroke-linejoin:miter;stroke:rgb(0%,50%,0%);stroke-opacity:1;stroke-miterlimit:10;" d="M 19.84075 0.00103125 L 25.512625 9.922906 " transform="matrix(1,0,0,-1,13.878,10.419)"/>
<g style="fill:rgb(0%,0%,0%);fill-opacity:1;">
  <use xlink:href="#glyph2-2" x="39.767" y="12.91"/>
</g>
<path style="fill:none;stroke-width:0.99628;stroke-linecap:butt;stroke-linejoin:miter;stroke:rgb(0%,50%,0%);stroke-opacity:1;stroke-miterlimit:10;" d="M 34.016531 -9.920844 L 39.6845 0.00103125 " transform="matrix(1,0,0,-1,13.878,10.419)"/>
<path style="fill:none;stroke-width:0.99628;stroke-linecap:butt;stroke-linejoin:miter;stroke:rgb(0%,50%,0%);stroke-opacity:1;stroke-miterlimit:10;" d="M 34.016531 9.922906 L 39.6845 0.00103125 " transform="matrix(1,0,0,-1,13.878,10.419)"/>
<path style="fill:none;stroke-width:0.99628;stroke-linecap:butt;stroke-linejoin:miter;stroke:rgb(0%,50%,0%);stroke-opacity:1;stroke-miterlimit:10;" d="M 39.6845 0.00103125 C 39.6845 -6.631781 56.692312 -6.631781 56.692312 0.00103125 " transform="matrix(1,0,0,-1,13.878,10.419)"/>
<path style="fill:none;stroke-width:0.99628;stroke-linecap:butt;stroke-linejoin:miter;stroke:rgb(0%,50%,0%);stroke-opacity:1;stroke-miterlimit:10;" d="M 39.6845 0.00103125 C 39.6845 6.633844 56.692312 6.633844 56.692312 0.00103125 " transform="matrix(1,0,0,-1,13.878,10.419)"/>
<path style="fill:none;stroke-width:0.99628;stroke-linecap:butt;stroke-linejoin:miter;stroke:rgb(0%,50%,0%);stroke-opacity:1;stroke-miterlimit:10;" d="M 56.692312 0.00103125 L 62.364187 -9.920844 " transform="matrix(1,0,0,-1,13.878,10.419)"/>
<path style="fill:none;stroke-width:0.99628;stroke-linecap:butt;stroke-linejoin:miter;stroke:rgb(0%,50%,0%);stroke-opacity:1;stroke-miterlimit:10;" d="M 56.692312 0.00103125 L 62.364187 9.922906 " transform="matrix(1,0,0,-1,13.878,10.419)"/>
<g style="fill:rgb(0%,0%,0%);fill-opacity:1;">
  <use xlink:href="#glyph2-2" x="24.177" y="39.839"/>
</g>
<g clip-path="url(#clip1)" clip-rule="nonzero">
<path style="fill:none;stroke-width:0.99628;stroke-linecap:butt;stroke-linejoin:miter;stroke:rgb(0%,50%,0%);stroke-opacity:1;stroke-miterlimit:10;" d="M 19.84075 -17.006781 L 25.512625 -26.928656 " transform="matrix(1,0,0,-1,13.878,10.419)"/>
</g>
<g clip-path="url(#clip2)" clip-rule="nonzero">
<path style="fill:none;stroke-width:0.99628;stroke-linecap:butt;stroke-linejoin:miter;stroke:rgb(0%,50%,0%);stroke-opacity:1;stroke-miterlimit:10;" d="M 19.84075 -36.850531 L 25.512625 -26.928656 " transform="matrix(1,0,0,-1,13.878,10.419)"/>
</g>
<g clip-path="url(#clip3)" clip-rule="nonzero">
<path style="fill:none;stroke-width:0.99628;stroke-linecap:butt;stroke-linejoin:miter;stroke:rgb(0%,50%,0%);stroke-opacity:1;stroke-miterlimit:10;" d="M 25.512625 -26.928656 C 25.512625 -33.561469 42.520437 -33.561469 42.520437 -26.928656 " transform="matrix(1,0,0,-1,13.878,10.419)"/>
</g>
<g clip-path="url(#clip4)" clip-rule="nonzero">
<path style="fill:none;stroke-width:0.99628;stroke-linecap:butt;stroke-linejoin:miter;stroke:rgb(0%,50%,0%);stroke-opacity:1;stroke-miterlimit:10;" d="M 25.512625 -26.928656 C 25.512625 -20.295844 42.520437 -20.295844 42.520437 -26.928656 " transform="matrix(1,0,0,-1,13.878,10.419)"/>
</g>
<g clip-path="url(#clip5)" clip-rule="nonzero">
<path style="fill:none;stroke-width:0.99628;stroke-linecap:butt;stroke-linejoin:miter;stroke:rgb(0%,50%,0%);stroke-opacity:1;stroke-miterlimit:10;" d="M 42.520437 -26.928656 C 42.520437 -33.561469 59.52825 -33.561469 59.52825 -26.928656 " transform="matrix(1,0,0,-1,13.878,10.419)"/>
</g>
<g clip-path="url(#clip6)" clip-rule="nonzero">
<path style="fill:none;stroke-width:0.99628;stroke-linecap:butt;stroke-linejoin:miter;stroke:rgb(0%,50%,0%);stroke-opacity:1;stroke-miterlimit:10;" d="M 42.520437 -26.928656 C 42.520437 -20.295844 59.52825 -20.295844 59.52825 -26.928656 " transform="matrix(1,0,0,-1,13.878,10.419)"/>
</g>
<g clip-path="url(#clip7)" clip-rule="nonzero">
<path style="fill:none;stroke-width:0.99628;stroke-linecap:butt;stroke-linejoin:miter;stroke:rgb(0%,50%,0%);stroke-opacity:1;stroke-miterlimit:10;" d="M 59.52825 -26.928656 L 65.196219 -17.006781 " transform="matrix(1,0,0,-1,13.878,10.419)"/>
</g>
<g clip-path="url(#clip8)" clip-rule="nonzero">
<path style="fill:none;stroke-width:0.99628;stroke-linecap:butt;stroke-linejoin:miter;stroke:rgb(0%,50%,0%);stroke-opacity:1;stroke-miterlimit:10;" d="M 59.52825 -26.928656 L 65.196219 -36.850531 " transform="matrix(1,0,0,-1,13.878,10.419)"/>
</g>
<g style="fill:rgb(0%,0%,0%);fill-opacity:1;">
  <use xlink:href="#glyph2-2" x="79.067" y="39.839"/>
</g>
<g style="fill:rgb(0%,0%,0%);fill-opacity:1;">
  <use xlink:href="#glyph3-1" x="88.476" y="39.839"/>
</g>
<g style="fill:rgb(0%,0%,0%);fill-opacity:1;">
  <use xlink:href="#glyph3-1" x="92.907364" y="39.839"/>
</g>
<g style="fill:rgb(0%,0%,0%);fill-opacity:1;">
  <use xlink:href="#glyph3-1" x="97.328766" y="39.839"/>
</g>
</g>
</svg>
