<?xml version="1.0" encoding="UTF-8"?>
<svg xmlns="http://www.w3.org/2000/svg" xmlns:xlink="http://www.w3.org/1999/xlink" width="387.842pt" height="187.515pt" viewBox="0 0 387.842 187.515" version="1.1">
<defs>
<g>
<symbol overflow="visible" id="glyph0-0">
<path style="stroke:none;" d=""/>
</symbol>
<symbol overflow="visible" id="glyph0-1">
<path style="stroke:none;" d="M 5.515625 -8.015625 C 5.90625 -6.15625 6.546875 -3.078125 7.359375 -1.421875 C 7.671875 -0.796875 7.828125 -0.484375 7.96875 -0.484375 C 8.03125 -0.484375 8.0625 -0.484375 8.3125 -0.75 C 9.40625 -1.796875 10.15625 -2.625 11.15625 -3.765625 L 14.296875 -7.4375 C 14.09375 -6.203125 13.578125 -2.984375 13.578125 -1.3125 C 13.578125 -0.921875 13.59375 -0.546875 13.640625 -0.15625 C 13.65625 0 13.71875 0.421875 14.3125 0.421875 C 14.921875 0.421875 16 -0.21875 16 -0.5 C 16 -0.59375 15.921875 -0.609375 15.875 -0.609375 C 15.6875 -0.609375 15.40625 -0.46875 15.25 -0.375 C 14.90625 -0.421875 14.875 -0.640625 14.84375 -0.96875 C 14.796875 -1.4375 14.796875 -1.859375 14.796875 -1.921875 C 14.796875 -3.515625 15.4375 -7.859375 15.84375 -9.640625 C 15.859375 -9.734375 15.875 -9.765625 15.875 -9.890625 C 15.875 -9.9375 15.859375 -10.09375 15.765625 -10.09375 C 15.703125 -10.09375 15.6875 -10.078125 15.421875 -9.765625 C 14.078125 -8.140625 9.890625 -3.109375 8.46875 -1.90625 C 8.109375 -2.671875 7.84375 -3.21875 7.34375 -5.21875 C 6.921875 -6.84375 6.6875 -8.03125 6.4375 -9.421875 C 6.390625 -9.625 6.328125 -10.015625 6.328125 -10.046875 C 6.28125 -10.109375 6.203125 -10.109375 6.171875 -10.109375 C 5.90625 -10.109375 5.3125 -9.796875 5.265625 -9.5 C 5.09375 -8.296875 4.8125 -6.390625 3.796875 -3.65625 C 2.65625 -0.609375 2.34375 -0.609375 2.0625 -0.609375 C 1.875 -0.609375 1.34375 -0.71875 1.03125 -1 C 0.96875 -1.078125 0.9375 -1.078125 0.90625 -1.078125 C 0.703125 -1.078125 0.390625 -0.4375 0.390625 -0.03125 C 0.390625 0.09375 0.390625 0.265625 0.84375 0.515625 C 1.203125 0.703125 1.546875 0.71875 1.625 0.71875 C 2.515625 0.71875 3.359375 -1.328125 3.640625 -2.0625 C 4.3125 -3.6875 5.125 -5.953125 5.515625 -8.015625 Z M 5.515625 -8.015625 "/>
</symbol>
<symbol overflow="visible" id="glyph1-0">
<path style="stroke:none;" d=""/>
</symbol>
<symbol overflow="visible" id="glyph1-1">
<path style="stroke:none;" d="M 4.734375 -2.3125 C 4.34375 -3.5 4.4375 -3.390625 4.078125 -4.390625 C 3.625 -5.625 3.515625 -5.71875 3.3125 -5.921875 C 3.0625 -6.15625 2.5625 -6.328125 2.0625 -6.328125 C 1.265625 -6.328125 0.875 -5.578125 0.875 -5.390625 C 0.875 -5.3125 0.953125 -5.265625 1.03125 -5.265625 C 1.140625 -5.265625 1.171875 -5.328125 1.1875 -5.390625 C 1.40625 -5.953125 1.84375 -6.03125 1.984375 -6.03125 C 2.390625 -6.03125 2.796875 -5 3.0625 -4.3125 C 3.40625 -3.4375 3.578125 -2.84375 3.953125 -1.453125 L 0.578125 2.390625 C 0.4375 2.546875 0.4375 2.609375 0.4375 2.625 C 0.4375 2.734375 0.515625 2.765625 0.578125 2.765625 C 0.625 2.765625 0.671875 2.734375 0.71875 2.703125 C 1.125 2.296875 2.015625 1.234375 2.375 0.796875 L 4.046875 -1.09375 C 4.75 1.125 4.75 1.140625 4.96875 1.671875 C 5.1875 2.21875 5.5 2.921875 6.71875 2.921875 C 7.53125 2.921875 7.90625 2.1875 7.90625 2 C 7.90625 1.890625 7.8125 1.859375 7.75 1.859375 C 7.625 1.859375 7.609375 1.921875 7.578125 2.03125 C 7.421875 2.4375 7.046875 2.640625 6.8125 2.640625 C 6.625 2.640625 6.390625 2.640625 5.765625 1.046875 C 5.390625 0.09375 5.0625 -1.0625 4.8125 -1.953125 L 8.21875 -5.828125 C 8.328125 -5.953125 8.34375 -5.96875 8.34375 -6.03125 C 8.34375 -6.125 8.28125 -6.171875 8.203125 -6.171875 C 8.15625 -6.171875 8.125 -6.171875 7.96875 -6.015625 Z M 4.734375 -2.3125 "/>
</symbol>
<symbol overflow="visible" id="glyph1-2">
<path style="stroke:none;" d="M 5.578125 -5.859375 C 5.140625 -5.78125 4.90625 -5.46875 4.90625 -5.15625 C 4.90625 -4.8125 5.171875 -4.6875 5.375 -4.6875 C 5.78125 -4.6875 6.109375 -5.03125 6.109375 -5.46875 C 6.109375 -5.921875 5.671875 -6.328125 4.953125 -6.328125 C 4.375 -6.328125 3.71875 -6.0625 3.109375 -5.1875 C 3.015625 -5.953125 2.4375 -6.328125 1.859375 -6.328125 C 1.3125 -6.328125 1.015625 -5.890625 0.84375 -5.578125 C 0.609375 -5.0625 0.390625 -4.203125 0.390625 -4.125 C 0.390625 -4.078125 0.4375 -4 0.546875 -4 C 0.65625 -4 0.671875 -4.015625 0.765625 -4.34375 C 0.96875 -5.203125 1.25 -6.03125 1.828125 -6.03125 C 2.171875 -6.03125 2.265625 -5.796875 2.265625 -5.375 C 2.265625 -5.0625 2.125 -4.5 2.015625 -4.0625 L 1.625 -2.515625 C 1.5625 -2.234375 1.40625 -1.59375 1.328125 -1.328125 C 1.234375 -0.96875 1.078125 -0.28125 1.078125 -0.21875 C 1.078125 -0.015625 1.234375 0.140625 1.453125 0.140625 C 1.609375 0.140625 1.875 0.046875 1.96875 -0.25 C 2.015625 -0.359375 2.53125 -2.53125 2.625 -2.859375 C 2.703125 -3.171875 2.78125 -3.46875 2.859375 -3.78125 C 2.90625 -3.984375 2.96875 -4.21875 3.015625 -4.40625 C 3.0625 -4.53125 3.4375 -5.234375 3.796875 -5.546875 C 3.96875 -5.703125 4.34375 -6.03125 4.9375 -6.03125 C 5.15625 -6.03125 5.390625 -6 5.578125 -5.859375 Z M 5.578125 -5.859375 "/>
</symbol>
<symbol overflow="visible" id="glyph2-0">
<path style="stroke:none;" d=""/>
</symbol>
<symbol overflow="visible" id="glyph2-1">
<path style="stroke:none;" d="M 6.1875 -9.984375 C 6.078125 -10.1875 6.046875 -10.234375 5.859375 -10.234375 C 5.640625 -10.234375 5.609375 -10.1875 5.515625 -9.984375 L 0.71875 -0.28125 C 0.6875 -0.25 0.65625 -0.15625 0.65625 -0.09375 C 0.65625 -0.015625 0.671875 0 0.96875 0 L 10.734375 0 C 11.015625 0 11.03125 -0.015625 11.03125 -0.09375 C 11.03125 -0.15625 11 -0.25 10.96875 -0.28125 Z M 5.40625 -8.921875 L 9.328125 -0.984375 L 1.5 -0.984375 Z M 5.40625 -8.921875 "/>
</symbol>
<symbol overflow="visible" id="glyph2-2">
<path style="stroke:none;" d="M 5.578125 -1.890625 C 7.765625 -2.078125 9.359375 -3.40625 9.359375 -4.890625 C 9.359375 -6.421875 7.71875 -7.71875 5.578125 -7.90625 L 5.578125 -8.6875 C 5.578125 -9.203125 5.609375 -9.375 6.859375 -9.375 L 7.28125 -9.375 L 7.28125 -9.796875 C 6.90625 -9.765625 5.515625 -9.765625 5.03125 -9.765625 C 4.5625 -9.765625 3.171875 -9.765625 2.78125 -9.796875 L 2.78125 -9.375 L 3.21875 -9.375 C 4.453125 -9.375 4.484375 -9.203125 4.484375 -8.6875 L 4.484375 -7.890625 C 2.265625 -7.6875 0.78125 -6.328125 0.78125 -4.90625 C 0.78125 -3.421875 2.3125 -2.109375 4.484375 -1.90625 L 4.484375 -1.109375 C 4.484375 -0.59375 4.453125 -0.421875 3.21875 -0.421875 L 2.78125 -0.421875 L 2.78125 0 C 3.171875 -0.03125 4.5625 -0.03125 5.03125 -0.03125 C 5.515625 -0.03125 6.90625 -0.03125 7.28125 0 L 7.28125 -0.421875 L 6.859375 -0.421875 C 5.609375 -0.421875 5.578125 -0.59375 5.578125 -1.109375 Z M 4.484375 -2.203125 C 2.921875 -2.40625 2.078125 -3.328125 2.078125 -4.890625 C 2.078125 -6.46875 2.90625 -7.390625 4.484375 -7.59375 Z M 5.578125 -7.609375 C 7.265625 -7.390625 8.046875 -6.421875 8.046875 -4.90625 C 8.046875 -3.40625 7.3125 -2.421875 5.578125 -2.1875 Z M 5.578125 -7.609375 "/>
</symbol>
<symbol overflow="visible" id="glyph3-0">
<path style="stroke:none;" d=""/>
</symbol>
<symbol overflow="visible" id="glyph3-1">
<path style="stroke:none;" d="M 2.375 -4.53125 C 2.625 -4.625 3.34375 -5.078125 3.34375 -5.375 C 3.34375 -5.515625 3.21875 -5.515625 3.09375 -5.515625 C 2.390625 -5.515625 0.375 -4.625 0.375 -2.5625 C 0.375 -1.078125 2.046875 0.453125 4.5625 0.453125 C 7.9375 0.453125 11.84375 -1.875 11.84375 -4.6875 C 11.84375 -6.65625 9.765625 -7.59375 8.09375 -8.34375 C 6.65625 -9 5.703125 -9.859375 5.703125 -11.03125 C 5.703125 -11.46875 5.890625 -12.265625 6.53125 -12.828125 C 7.140625 -13.359375 8.296875 -13.421875 8.59375 -13.421875 C 8.8125 -13.421875 9.6875 -13.40625 10.578125 -13.015625 C 10.96875 -12.828125 11.5 -12.578125 11.5 -11.6875 C 11.5 -11.40625 11.484375 -11.296875 11.421875 -11.078125 C 11.40625 -11.015625 11.375 -10.921875 11.375 -10.859375 C 11.375 -10.71875 11.5 -10.71875 11.59375 -10.71875 C 11.859375 -10.71875 12.359375 -10.921875 12.765625 -11.28125 C 13.03125 -11.484375 13.265625 -11.75 13.265625 -12.5625 C 13.265625 -13.578125 12.71875 -13.859375 12.171875 -14.109375 C 11.203125 -14.5625 10.25 -14.5625 9.953125 -14.5625 C 7.25 -14.5625 3.953125 -12.5 3.953125 -10.140625 C 3.953125 -8.40625 5.75 -7.578125 6.734375 -7.140625 C 8.203125 -6.484375 10.078125 -5.53125 10.078125 -3.796875 C 10.078125 -2.421875 9.0625 -0.6875 5.921875 -0.6875 C 3.828125 -0.6875 2.125 -2.046875 2.125 -3.453125 C 2.125 -3.828125 2.234375 -4.1875 2.375 -4.53125 Z M 2.375 -4.53125 "/>
</symbol>
<symbol overflow="visible" id="glyph4-0">
<path style="stroke:none;" d=""/>
</symbol>
<symbol overflow="visible" id="glyph4-1">
<path style="stroke:none;" d="M 6.75 -1.609375 L 6.5 -1.609375 C 6.453125 -1.359375 6.40625 -1.125 6.3125 -0.890625 C 6.265625 -0.734375 6.234375 -0.640625 5.65625 -0.640625 L 4.859375 -0.640625 C 5 -1.203125 5.296875 -1.6875 5.75 -2.34375 C 6.21875 -3.046875 6.625 -3.734375 6.625 -4.53125 C 6.625 -5.90625 5.28125 -7.03125 3.59375 -7.03125 C 1.890625 -7.03125 0.5625 -5.890625 0.5625 -4.53125 C 0.5625 -3.734375 0.96875 -3.046875 1.4375 -2.34375 C 1.875 -1.6875 2.1875 -1.203125 2.328125 -0.640625 L 1.53125 -0.640625 C 0.953125 -0.640625 0.921875 -0.734375 0.875 -0.875 C 0.78125 -1.109375 0.734375 -1.359375 0.6875 -1.609375 L 0.4375 -1.609375 L 0.765625 0 L 2.359375 0 C 2.578125 0 2.609375 0 2.609375 -0.203125 C 2.609375 -0.90625 2.296875 -1.78125 2.078125 -2.421875 C 1.859375 -3 1.578125 -3.78125 1.578125 -4.53125 C 1.578125 -6.125 2.6875 -6.8125 3.59375 -6.8125 C 4.546875 -6.8125 5.609375 -6.09375 5.609375 -4.53125 C 5.609375 -3.78125 5.328125 -3.03125 5.046875 -2.21875 C 4.890625 -1.796875 4.578125 -0.890625 4.578125 -0.203125 C 4.578125 0 4.609375 0 4.828125 0 L 6.421875 0 Z M 6.75 -1.609375 "/>
</symbol>
<symbol overflow="visible" id="glyph4-2">
<path style="stroke:none;" d="M 2.03125 -0.015625 C 2.03125 -0.640625 1.78125 -1.0625 1.390625 -1.0625 C 1.03125 -1.0625 0.859375 -0.78125 0.859375 -0.53125 C 0.859375 -0.265625 1.03125 0 1.390625 0 C 1.546875 0 1.671875 -0.0625 1.765625 -0.140625 L 1.78125 -0.15625 C 1.796875 -0.15625 1.796875 -0.15625 1.796875 -0.015625 C 1.796875 0.625 1.53125 1.234375 1.09375 1.703125 C 1.03125 1.765625 1.015625 1.78125 1.015625 1.8125 C 1.015625 1.890625 1.0625 1.921875 1.109375 1.921875 C 1.234375 1.921875 2.03125 1.140625 2.03125 -0.015625 Z M 2.03125 -0.015625 "/>
</symbol>
<symbol overflow="visible" id="glyph4-3">
<path style="stroke:none;" d="M 1.765625 -4.40625 L 0.375 -4.296875 L 0.375 -3.984375 C 1.015625 -3.984375 1.109375 -3.921875 1.109375 -3.4375 L 1.109375 -0.75 C 1.109375 -0.3125 1 -0.3125 0.328125 -0.3125 L 0.328125 0 C 0.640625 -0.015625 1.1875 -0.03125 1.421875 -0.03125 C 1.78125 -0.03125 2.125 -0.015625 2.46875 0 L 2.46875 -0.3125 C 1.796875 -0.3125 1.765625 -0.359375 1.765625 -0.75 Z M 1.796875 -6.140625 C 1.796875 -6.453125 1.5625 -6.671875 1.28125 -6.671875 C 0.96875 -6.671875 0.75 -6.40625 0.75 -6.140625 C 0.75 -5.875 0.96875 -5.609375 1.28125 -5.609375 C 1.5625 -5.609375 1.796875 -5.828125 1.796875 -6.140625 Z M 1.796875 -6.140625 "/>
</symbol>
<symbol overflow="visible" id="glyph4-4">
<path style="stroke:none;" d="M 1.09375 -3.421875 L 1.09375 -0.75 C 1.09375 -0.3125 0.984375 -0.3125 0.3125 -0.3125 L 0.3125 0 C 0.671875 -0.015625 1.171875 -0.03125 1.453125 -0.03125 C 1.703125 -0.03125 2.21875 -0.015625 2.5625 0 L 2.5625 -0.3125 C 1.890625 -0.3125 1.78125 -0.3125 1.78125 -0.75 L 1.78125 -2.59375 C 1.78125 -3.625 2.5 -4.1875 3.125 -4.1875 C 3.765625 -4.1875 3.875 -3.65625 3.875 -3.078125 L 3.875 -0.75 C 3.875 -0.3125 3.765625 -0.3125 3.09375 -0.3125 L 3.09375 0 C 3.4375 -0.015625 3.953125 -0.03125 4.21875 -0.03125 C 4.46875 -0.03125 5 -0.015625 5.328125 0 L 5.328125 -0.3125 C 4.671875 -0.3125 4.5625 -0.3125 4.5625 -0.75 L 4.5625 -2.59375 C 4.5625 -3.625 5.265625 -4.1875 5.90625 -4.1875 C 6.53125 -4.1875 6.640625 -3.65625 6.640625 -3.078125 L 6.640625 -0.75 C 6.640625 -0.3125 6.53125 -0.3125 5.859375 -0.3125 L 5.859375 0 C 6.203125 -0.015625 6.71875 -0.03125 6.984375 -0.03125 C 7.25 -0.03125 7.765625 -0.015625 8.109375 0 L 8.109375 -0.3125 C 7.59375 -0.3125 7.34375 -0.3125 7.328125 -0.609375 L 7.328125 -2.515625 C 7.328125 -3.375 7.328125 -3.671875 7.015625 -4.03125 C 6.875 -4.203125 6.546875 -4.40625 5.96875 -4.40625 C 5.140625 -4.40625 4.6875 -3.8125 4.53125 -3.421875 C 4.390625 -4.296875 3.65625 -4.40625 3.203125 -4.40625 C 2.46875 -4.40625 2 -3.984375 1.71875 -3.359375 L 1.71875 -4.40625 L 0.3125 -4.296875 L 0.3125 -3.984375 C 1.015625 -3.984375 1.09375 -3.921875 1.09375 -3.421875 Z M 1.09375 -3.421875 "/>
</symbol>
<symbol overflow="visible" id="glyph4-5">
<path style="stroke:none;" d="M 1.71875 -3.75 L 1.71875 -4.40625 L 0.28125 -4.296875 L 0.28125 -3.984375 C 0.984375 -3.984375 1.0625 -3.921875 1.0625 -3.484375 L 1.0625 1.171875 C 1.0625 1.625 0.953125 1.625 0.28125 1.625 L 0.28125 1.9375 C 0.625 1.921875 1.140625 1.90625 1.390625 1.90625 C 1.671875 1.90625 2.171875 1.921875 2.515625 1.9375 L 2.515625 1.625 C 1.859375 1.625 1.75 1.625 1.75 1.171875 L 1.75 -0.59375 C 1.796875 -0.421875 2.21875 0.109375 2.96875 0.109375 C 4.15625 0.109375 5.1875 -0.875 5.1875 -2.15625 C 5.1875 -3.421875 4.234375 -4.40625 3.109375 -4.40625 C 2.328125 -4.40625 1.90625 -3.96875 1.71875 -3.75 Z M 1.75 -1.140625 L 1.75 -3.359375 C 2.03125 -3.875 2.515625 -4.15625 3.03125 -4.15625 C 3.765625 -4.15625 4.359375 -3.28125 4.359375 -2.15625 C 4.359375 -0.953125 3.671875 -0.109375 2.9375 -0.109375 C 2.53125 -0.109375 2.15625 -0.3125 1.890625 -0.71875 C 1.75 -0.921875 1.75 -0.9375 1.75 -1.140625 Z M 1.75 -1.140625 "/>
</symbol>
<symbol overflow="visible" id="glyph4-6">
<path style="stroke:none;" d="M 1.109375 -2.515625 C 1.171875 -4 2.015625 -4.25 2.359375 -4.25 C 3.375 -4.25 3.484375 -2.90625 3.484375 -2.515625 Z M 1.109375 -2.296875 L 3.890625 -2.296875 C 4.109375 -2.296875 4.140625 -2.296875 4.140625 -2.515625 C 4.140625 -3.5 3.59375 -4.46875 2.359375 -4.46875 C 1.203125 -4.46875 0.28125 -3.4375 0.28125 -2.1875 C 0.28125 -0.859375 1.328125 0.109375 2.46875 0.109375 C 3.6875 0.109375 4.140625 -1 4.140625 -1.1875 C 4.140625 -1.28125 4.0625 -1.3125 4 -1.3125 C 3.921875 -1.3125 3.890625 -1.25 3.875 -1.171875 C 3.53125 -0.140625 2.625 -0.140625 2.53125 -0.140625 C 2.03125 -0.140625 1.640625 -0.4375 1.40625 -0.8125 C 1.109375 -1.28125 1.109375 -1.9375 1.109375 -2.296875 Z M 1.109375 -2.296875 "/>
</symbol>
<symbol overflow="visible" id="glyph4-7">
<path style="stroke:none;" d="M 1.71875 -3.984375 L 3.15625 -3.984375 L 3.15625 -4.296875 L 1.71875 -4.296875 L 1.71875 -6.125 L 1.46875 -6.125 C 1.46875 -5.3125 1.171875 -4.25 0.1875 -4.203125 L 0.1875 -3.984375 L 1.03125 -3.984375 L 1.03125 -1.234375 C 1.03125 -0.015625 1.96875 0.109375 2.328125 0.109375 C 3.03125 0.109375 3.3125 -0.59375 3.3125 -1.234375 L 3.3125 -1.796875 L 3.0625 -1.796875 L 3.0625 -1.25 C 3.0625 -0.515625 2.765625 -0.140625 2.390625 -0.140625 C 1.71875 -0.140625 1.71875 -1.046875 1.71875 -1.21875 Z M 1.71875 -3.984375 "/>
</symbol>
<symbol overflow="visible" id="glyph4-8">
<path style="stroke:none;" d="M 3.890625 -0.78125 L 3.890625 0.109375 L 5.328125 0 L 5.328125 -0.3125 C 4.640625 -0.3125 4.5625 -0.375 4.5625 -0.875 L 4.5625 -4.40625 L 3.09375 -4.296875 L 3.09375 -3.984375 C 3.78125 -3.984375 3.875 -3.921875 3.875 -3.421875 L 3.875 -1.65625 C 3.875 -0.78125 3.390625 -0.109375 2.65625 -0.109375 C 1.828125 -0.109375 1.78125 -0.578125 1.78125 -1.09375 L 1.78125 -4.40625 L 0.3125 -4.296875 L 0.3125 -3.984375 C 1.09375 -3.984375 1.09375 -3.953125 1.09375 -3.078125 L 1.09375 -1.578125 C 1.09375 -0.796875 1.09375 0.109375 2.609375 0.109375 C 3.171875 0.109375 3.609375 -0.171875 3.890625 -0.78125 Z M 3.890625 -0.78125 "/>
</symbol>
<symbol overflow="visible" id="glyph4-9">
<path style="stroke:none;" d="M 2.078125 -1.9375 C 2.296875 -1.890625 3.109375 -1.734375 3.109375 -1.015625 C 3.109375 -0.515625 2.765625 -0.109375 1.984375 -0.109375 C 1.140625 -0.109375 0.78125 -0.671875 0.59375 -1.53125 C 0.5625 -1.65625 0.5625 -1.6875 0.453125 -1.6875 C 0.328125 -1.6875 0.328125 -1.625 0.328125 -1.453125 L 0.328125 -0.125 C 0.328125 0.046875 0.328125 0.109375 0.4375 0.109375 C 0.484375 0.109375 0.5 0.09375 0.6875 -0.09375 C 0.703125 -0.109375 0.703125 -0.125 0.890625 -0.3125 C 1.328125 0.09375 1.78125 0.109375 1.984375 0.109375 C 3.125 0.109375 3.59375 -0.5625 3.59375 -1.28125 C 3.59375 -1.796875 3.296875 -2.109375 3.171875 -2.21875 C 2.84375 -2.546875 2.453125 -2.625 2.03125 -2.703125 C 1.46875 -2.8125 0.8125 -2.9375 0.8125 -3.515625 C 0.8125 -3.875 1.0625 -4.28125 1.921875 -4.28125 C 3.015625 -4.28125 3.078125 -3.375 3.09375 -3.078125 C 3.09375 -2.984375 3.1875 -2.984375 3.203125 -2.984375 C 3.34375 -2.984375 3.34375 -3.03125 3.34375 -3.21875 L 3.34375 -4.234375 C 3.34375 -4.390625 3.34375 -4.46875 3.234375 -4.46875 C 3.1875 -4.46875 3.15625 -4.46875 3.03125 -4.34375 C 3 -4.3125 2.90625 -4.21875 2.859375 -4.1875 C 2.484375 -4.46875 2.078125 -4.46875 1.921875 -4.46875 C 0.703125 -4.46875 0.328125 -3.796875 0.328125 -3.234375 C 0.328125 -2.890625 0.484375 -2.609375 0.75 -2.390625 C 1.078125 -2.140625 1.359375 -2.078125 2.078125 -1.9375 Z M 2.078125 -1.9375 "/>
</symbol>
<symbol overflow="visible" id="glyph4-10">
<path style="stroke:none;" d="M 1.75 -4.296875 L 1.75 -5.453125 C 1.75 -6.328125 2.21875 -6.8125 2.65625 -6.8125 C 2.6875 -6.8125 2.84375 -6.8125 2.984375 -6.734375 C 2.875 -6.703125 2.6875 -6.5625 2.6875 -6.3125 C 2.6875 -6.09375 2.84375 -5.890625 3.125 -5.890625 C 3.40625 -5.890625 3.5625 -6.09375 3.5625 -6.328125 C 3.5625 -6.703125 3.1875 -7.03125 2.65625 -7.03125 C 1.96875 -7.03125 1.109375 -6.5 1.109375 -5.4375 L 1.109375 -4.296875 L 0.328125 -4.296875 L 0.328125 -3.984375 L 1.109375 -3.984375 L 1.109375 -0.75 C 1.109375 -0.3125 1 -0.3125 0.34375 -0.3125 L 0.34375 0 C 0.734375 -0.015625 1.203125 -0.03125 1.46875 -0.03125 C 1.875 -0.03125 2.34375 -0.03125 2.734375 0 L 2.734375 -0.3125 L 2.53125 -0.3125 C 1.796875 -0.3125 1.78125 -0.421875 1.78125 -0.78125 L 1.78125 -3.984375 L 2.90625 -3.984375 L 2.90625 -4.296875 Z M 1.75 -4.296875 "/>
</symbol>
<symbol overflow="visible" id="glyph4-11">
<path style="stroke:none;" d="M 4.6875 -2.140625 C 4.6875 -3.40625 3.703125 -4.46875 2.5 -4.46875 C 1.25 -4.46875 0.28125 -3.375 0.28125 -2.140625 C 0.28125 -0.84375 1.3125 0.109375 2.484375 0.109375 C 3.6875 0.109375 4.6875 -0.875 4.6875 -2.140625 Z M 2.5 -0.140625 C 2.0625 -0.140625 1.625 -0.34375 1.359375 -0.8125 C 1.109375 -1.25 1.109375 -1.859375 1.109375 -2.21875 C 1.109375 -2.609375 1.109375 -3.140625 1.34375 -3.578125 C 1.609375 -4.03125 2.078125 -4.25 2.484375 -4.25 C 2.921875 -4.25 3.34375 -4.03125 3.609375 -3.59375 C 3.875 -3.171875 3.875 -2.59375 3.875 -2.21875 C 3.875 -1.859375 3.875 -1.3125 3.65625 -0.875 C 3.421875 -0.421875 2.984375 -0.140625 2.5 -0.140625 Z M 2.5 -0.140625 "/>
</symbol>
<symbol overflow="visible" id="glyph4-12">
<path style="stroke:none;" d="M 1.671875 -3.3125 L 1.671875 -4.40625 L 0.28125 -4.296875 L 0.28125 -3.984375 C 0.984375 -3.984375 1.0625 -3.921875 1.0625 -3.421875 L 1.0625 -0.75 C 1.0625 -0.3125 0.953125 -0.3125 0.28125 -0.3125 L 0.28125 0 C 0.671875 -0.015625 1.140625 -0.03125 1.421875 -0.03125 C 1.8125 -0.03125 2.28125 -0.03125 2.6875 0 L 2.6875 -0.3125 L 2.46875 -0.3125 C 1.734375 -0.3125 1.71875 -0.421875 1.71875 -0.78125 L 1.71875 -2.3125 C 1.71875 -3.296875 2.140625 -4.1875 2.890625 -4.1875 C 2.953125 -4.1875 2.984375 -4.1875 3 -4.171875 C 2.96875 -4.171875 2.765625 -4.046875 2.765625 -3.78125 C 2.765625 -3.515625 2.984375 -3.359375 3.203125 -3.359375 C 3.375 -3.359375 3.625 -3.484375 3.625 -3.796875 C 3.625 -4.109375 3.3125 -4.40625 2.890625 -4.40625 C 2.15625 -4.40625 1.796875 -3.734375 1.671875 -3.3125 Z M 1.671875 -3.3125 "/>
</symbol>
<symbol overflow="visible" id="glyph4-13">
<path style="stroke:none;" d="M 1.765625 -6.921875 L 0.328125 -6.8125 L 0.328125 -6.5 C 1.03125 -6.5 1.109375 -6.4375 1.109375 -5.9375 L 1.109375 -0.75 C 1.109375 -0.3125 1 -0.3125 0.328125 -0.3125 L 0.328125 0 C 0.65625 -0.015625 1.1875 -0.03125 1.4375 -0.03125 C 1.6875 -0.03125 2.171875 -0.015625 2.546875 0 L 2.546875 -0.3125 C 1.875 -0.3125 1.765625 -0.3125 1.765625 -0.75 Z M 1.765625 -6.921875 "/>
</symbol>
<symbol overflow="visible" id="glyph4-14">
<path style="stroke:none;" d="M 3.3125 -0.75 C 3.359375 -0.359375 3.625 0.0625 4.09375 0.0625 C 4.3125 0.0625 4.921875 -0.078125 4.921875 -0.890625 L 4.921875 -1.453125 L 4.671875 -1.453125 L 4.671875 -0.890625 C 4.671875 -0.3125 4.421875 -0.25 4.3125 -0.25 C 3.984375 -0.25 3.9375 -0.703125 3.9375 -0.75 L 3.9375 -2.734375 C 3.9375 -3.15625 3.9375 -3.546875 3.578125 -3.921875 C 3.1875 -4.3125 2.6875 -4.46875 2.21875 -4.46875 C 1.390625 -4.46875 0.703125 -4 0.703125 -3.34375 C 0.703125 -3.046875 0.90625 -2.875 1.171875 -2.875 C 1.453125 -2.875 1.625 -3.078125 1.625 -3.328125 C 1.625 -3.453125 1.578125 -3.78125 1.109375 -3.78125 C 1.390625 -4.140625 1.875 -4.25 2.1875 -4.25 C 2.6875 -4.25 3.25 -3.859375 3.25 -2.96875 L 3.25 -2.609375 C 2.734375 -2.578125 2.046875 -2.546875 1.421875 -2.25 C 0.671875 -1.90625 0.421875 -1.390625 0.421875 -0.953125 C 0.421875 -0.140625 1.390625 0.109375 2.015625 0.109375 C 2.671875 0.109375 3.125 -0.296875 3.3125 -0.75 Z M 3.25 -2.390625 L 3.25 -1.390625 C 3.25 -0.453125 2.53125 -0.109375 2.078125 -0.109375 C 1.59375 -0.109375 1.1875 -0.453125 1.1875 -0.953125 C 1.1875 -1.5 1.609375 -2.328125 3.25 -2.390625 Z M 3.25 -2.390625 "/>
</symbol>
<symbol overflow="visible" id="glyph4-15">
<path style="stroke:none;" d="M 1.09375 -3.421875 L 1.09375 -0.75 C 1.09375 -0.3125 0.984375 -0.3125 0.3125 -0.3125 L 0.3125 0 C 0.671875 -0.015625 1.171875 -0.03125 1.453125 -0.03125 C 1.703125 -0.03125 2.21875 -0.015625 2.5625 0 L 2.5625 -0.3125 C 1.890625 -0.3125 1.78125 -0.3125 1.78125 -0.75 L 1.78125 -2.59375 C 1.78125 -3.625 2.5 -4.1875 3.125 -4.1875 C 3.765625 -4.1875 3.875 -3.65625 3.875 -3.078125 L 3.875 -0.75 C 3.875 -0.3125 3.765625 -0.3125 3.09375 -0.3125 L 3.09375 0 C 3.4375 -0.015625 3.953125 -0.03125 4.21875 -0.03125 C 4.46875 -0.03125 5 -0.015625 5.328125 0 L 5.328125 -0.3125 C 4.8125 -0.3125 4.5625 -0.3125 4.5625 -0.609375 L 4.5625 -2.515625 C 4.5625 -3.375 4.5625 -3.671875 4.25 -4.03125 C 4.109375 -4.203125 3.78125 -4.40625 3.203125 -4.40625 C 2.46875 -4.40625 2 -3.984375 1.71875 -3.359375 L 1.71875 -4.40625 L 0.3125 -4.296875 L 0.3125 -3.984375 C 1.015625 -3.984375 1.09375 -3.921875 1.09375 -3.421875 Z M 1.09375 -3.421875 "/>
</symbol>
<symbol overflow="visible" id="glyph4-16">
<path style="stroke:none;" d="M 2.21875 -1.71875 C 1.34375 -1.71875 1.34375 -2.71875 1.34375 -2.9375 C 1.34375 -3.203125 1.359375 -3.53125 1.5 -3.78125 C 1.578125 -3.890625 1.8125 -4.171875 2.21875 -4.171875 C 3.078125 -4.171875 3.078125 -3.1875 3.078125 -2.953125 C 3.078125 -2.6875 3.078125 -2.359375 2.921875 -2.109375 C 2.84375 -2 2.609375 -1.71875 2.21875 -1.71875 Z M 1.0625 -1.328125 C 1.0625 -1.359375 1.0625 -1.59375 1.21875 -1.796875 C 1.609375 -1.515625 2.03125 -1.484375 2.21875 -1.484375 C 3.140625 -1.484375 3.828125 -2.171875 3.828125 -2.9375 C 3.828125 -3.3125 3.671875 -3.671875 3.421875 -3.90625 C 3.78125 -4.25 4.140625 -4.296875 4.3125 -4.296875 C 4.34375 -4.296875 4.390625 -4.296875 4.421875 -4.28125 C 4.3125 -4.25 4.25 -4.140625 4.25 -4.015625 C 4.25 -3.84375 4.390625 -3.734375 4.546875 -3.734375 C 4.640625 -3.734375 4.828125 -3.796875 4.828125 -4.03125 C 4.828125 -4.203125 4.71875 -4.515625 4.328125 -4.515625 C 4.125 -4.515625 3.6875 -4.453125 3.265625 -4.046875 C 2.84375 -4.375 2.4375 -4.40625 2.21875 -4.40625 C 1.28125 -4.40625 0.59375 -3.71875 0.59375 -2.953125 C 0.59375 -2.515625 0.8125 -2.140625 1.0625 -1.921875 C 0.9375 -1.78125 0.75 -1.453125 0.75 -1.09375 C 0.75 -0.78125 0.890625 -0.40625 1.203125 -0.203125 C 0.59375 -0.046875 0.28125 0.390625 0.28125 0.78125 C 0.28125 1.5 1.265625 2.046875 2.484375 2.046875 C 3.65625 2.046875 4.6875 1.546875 4.6875 0.765625 C 4.6875 0.421875 4.5625 -0.09375 4.046875 -0.375 C 3.515625 -0.640625 2.9375 -0.640625 2.328125 -0.640625 C 2.078125 -0.640625 1.65625 -0.640625 1.578125 -0.65625 C 1.265625 -0.703125 1.0625 -1 1.0625 -1.328125 Z M 2.5 1.828125 C 1.484375 1.828125 0.796875 1.3125 0.796875 0.78125 C 0.796875 0.328125 1.171875 -0.046875 1.609375 -0.0625 L 2.203125 -0.0625 C 3.0625 -0.0625 4.171875 -0.0625 4.171875 0.78125 C 4.171875 1.328125 3.46875 1.828125 2.5 1.828125 Z M 2.5 1.828125 "/>
</symbol>
<symbol overflow="visible" id="glyph4-17">
<path style="stroke:none;" d="M 4.578125 -3.1875 C 4.578125 -3.984375 4.53125 -4.78125 4.1875 -5.515625 C 3.734375 -6.484375 2.90625 -6.640625 2.5 -6.640625 C 1.890625 -6.640625 1.171875 -6.375 0.75 -5.453125 C 0.4375 -4.765625 0.390625 -3.984375 0.390625 -3.1875 C 0.390625 -2.4375 0.421875 -1.546875 0.84375 -0.78125 C 1.265625 0.015625 2 0.21875 2.484375 0.21875 C 3.015625 0.21875 3.78125 0.015625 4.21875 -0.9375 C 4.53125 -1.625 4.578125 -2.40625 4.578125 -3.1875 Z M 2.484375 0 C 2.09375 0 1.5 -0.25 1.328125 -1.203125 C 1.21875 -1.796875 1.21875 -2.71875 1.21875 -3.3125 C 1.21875 -3.953125 1.21875 -4.609375 1.296875 -5.140625 C 1.484375 -6.328125 2.234375 -6.421875 2.484375 -6.421875 C 2.8125 -6.421875 3.46875 -6.234375 3.65625 -5.25 C 3.765625 -4.6875 3.765625 -3.9375 3.765625 -3.3125 C 3.765625 -2.5625 3.765625 -1.890625 3.65625 -1.25 C 3.5 -0.296875 2.9375 0 2.484375 0 Z M 2.484375 0 "/>
</symbol>
<symbol overflow="visible" id="glyph4-18">
<path style="stroke:none;" d="M 3.296875 2.390625 C 3.296875 2.359375 3.296875 2.34375 3.125 2.171875 C 1.890625 0.921875 1.5625 -0.96875 1.5625 -2.5 C 1.5625 -4.234375 1.9375 -5.96875 3.171875 -7.203125 C 3.296875 -7.328125 3.296875 -7.34375 3.296875 -7.375 C 3.296875 -7.453125 3.265625 -7.484375 3.203125 -7.484375 C 3.09375 -7.484375 2.203125 -6.796875 1.609375 -5.53125 C 1.109375 -4.4375 0.984375 -3.328125 0.984375 -2.5 C 0.984375 -1.71875 1.09375 -0.515625 1.640625 0.625 C 2.25 1.84375 3.09375 2.5 3.203125 2.5 C 3.265625 2.5 3.296875 2.46875 3.296875 2.390625 Z M 3.296875 2.390625 "/>
</symbol>
<symbol overflow="visible" id="glyph4-19">
<path style="stroke:none;" d="M 2.875 -2.5 C 2.875 -3.265625 2.765625 -4.46875 2.21875 -5.609375 C 1.625 -6.828125 0.765625 -7.484375 0.671875 -7.484375 C 0.609375 -7.484375 0.5625 -7.4375 0.5625 -7.375 C 0.5625 -7.34375 0.5625 -7.328125 0.75 -7.140625 C 1.734375 -6.15625 2.296875 -4.578125 2.296875 -2.5 C 2.296875 -0.78125 1.9375 0.96875 0.703125 2.21875 C 0.5625 2.34375 0.5625 2.359375 0.5625 2.390625 C 0.5625 2.453125 0.609375 2.5 0.671875 2.5 C 0.765625 2.5 1.671875 1.8125 2.25 0.546875 C 2.765625 -0.546875 2.875 -1.65625 2.875 -2.5 Z M 2.875 -2.5 "/>
</symbol>
<symbol overflow="visible" id="glyph4-20">
<path style="stroke:none;" d="M 4.078125 -2.296875 L 6.859375 -2.296875 C 7 -2.296875 7.1875 -2.296875 7.1875 -2.5 C 7.1875 -2.6875 7 -2.6875 6.859375 -2.6875 L 4.078125 -2.6875 L 4.078125 -5.484375 C 4.078125 -5.625 4.078125 -5.8125 3.875 -5.8125 C 3.671875 -5.8125 3.671875 -5.625 3.671875 -5.484375 L 3.671875 -2.6875 L 0.890625 -2.6875 C 0.75 -2.6875 0.5625 -2.6875 0.5625 -2.5 C 0.5625 -2.296875 0.75 -2.296875 0.890625 -2.296875 L 3.671875 -2.296875 L 3.671875 0.5 C 3.671875 0.640625 3.671875 0.828125 3.875 0.828125 C 4.078125 0.828125 4.078125 0.640625 4.078125 0.5 Z M 4.078125 -2.296875 "/>
</symbol>
<symbol overflow="visible" id="glyph4-21">
<path style="stroke:none;" d="M 3.78125 -0.546875 L 3.78125 0.109375 L 5.25 0 L 5.25 -0.3125 C 4.5625 -0.3125 4.46875 -0.375 4.46875 -0.875 L 4.46875 -6.921875 L 3.046875 -6.8125 L 3.046875 -6.5 C 3.734375 -6.5 3.8125 -6.4375 3.8125 -5.9375 L 3.8125 -3.78125 C 3.53125 -4.140625 3.09375 -4.40625 2.5625 -4.40625 C 1.390625 -4.40625 0.34375 -3.421875 0.34375 -2.140625 C 0.34375 -0.875 1.3125 0.109375 2.453125 0.109375 C 3.09375 0.109375 3.53125 -0.234375 3.78125 -0.546875 Z M 3.78125 -3.21875 L 3.78125 -1.171875 C 3.78125 -1 3.78125 -0.984375 3.671875 -0.8125 C 3.375 -0.328125 2.9375 -0.109375 2.5 -0.109375 C 2.046875 -0.109375 1.6875 -0.375 1.453125 -0.75 C 1.203125 -1.15625 1.171875 -1.71875 1.171875 -2.140625 C 1.171875 -2.5 1.1875 -3.09375 1.46875 -3.546875 C 1.6875 -3.859375 2.0625 -4.1875 2.609375 -4.1875 C 2.953125 -4.1875 3.375 -4.03125 3.671875 -3.59375 C 3.78125 -3.421875 3.78125 -3.40625 3.78125 -3.21875 Z M 3.78125 -3.21875 "/>
</symbol>
<symbol overflow="visible" id="glyph5-0">
<path style="stroke:none;" d=""/>
</symbol>
<symbol overflow="visible" id="glyph5-1">
<path style="stroke:none;" d="M 1.640625 -1.40625 C 1.640625 -1.453125 1.8125 -2.078125 1.8125 -2.109375 C 1.828125 -2.171875 2.03125 -2.515625 2.265625 -2.6875 C 2.328125 -2.734375 2.515625 -2.875 2.828125 -2.875 C 2.890625 -2.875 3.0625 -2.875 3.203125 -2.78125 C 2.984375 -2.71875 2.90625 -2.515625 2.90625 -2.390625 C 2.90625 -2.25 3.015625 -2.140625 3.171875 -2.140625 C 3.34375 -2.140625 3.5625 -2.265625 3.5625 -2.5625 C 3.5625 -2.921875 3.1875 -3.078125 2.828125 -3.078125 C 2.46875 -3.078125 2.15625 -2.921875 1.84375 -2.578125 C 1.71875 -3 1.296875 -3.078125 1.125 -3.078125 C 0.875 -3.078125 0.703125 -2.90625 0.578125 -2.71875 C 0.421875 -2.453125 0.328125 -2.046875 0.328125 -2 C 0.328125 -1.921875 0.421875 -1.921875 0.453125 -1.921875 C 0.546875 -1.921875 0.546875 -1.9375 0.59375 -2.125 C 0.703125 -2.546875 0.84375 -2.875 1.109375 -2.875 C 1.296875 -2.875 1.34375 -2.71875 1.34375 -2.53125 C 1.34375 -2.40625 1.28125 -2.140625 1.21875 -1.953125 C 1.171875 -1.765625 1.109375 -1.484375 1.078125 -1.328125 L 0.84375 -0.4375 C 0.828125 -0.34375 0.78125 -0.171875 0.78125 -0.15625 C 0.78125 0 0.90625 0.0625 1.015625 0.0625 C 1.125 0.0625 1.265625 0 1.3125 -0.125 C 1.328125 -0.171875 1.40625 -0.484375 1.453125 -0.65625 Z M 1.640625 -1.40625 "/>
</symbol>
<symbol overflow="visible" id="glyph5-2">
<path style="stroke:none;" d="M 0.515625 0.84375 C 0.46875 1.046875 0.453125 1.09375 0.1875 1.09375 C 0.09375 1.09375 0 1.09375 0 1.25 C 0 1.328125 0.0625 1.359375 0.09375 1.359375 C 0.265625 1.359375 0.5 1.328125 0.6875 1.328125 C 0.921875 1.328125 1.1875 1.359375 1.421875 1.359375 C 1.484375 1.359375 1.5625 1.328125 1.5625 1.203125 C 1.5625 1.09375 1.46875 1.09375 1.375 1.09375 C 1.21875 1.09375 1.03125 1.09375 1.03125 1.015625 C 1.03125 0.984375 1.09375 0.796875 1.109375 0.703125 C 1.203125 0.328125 1.296875 -0.046875 1.375 -0.34375 C 1.453125 -0.203125 1.671875 0.0625 2.09375 0.0625 C 2.9375 0.0625 3.875 -0.875 3.875 -1.90625 C 3.875 -2.71875 3.3125 -3.078125 2.84375 -3.078125 C 2.40625 -3.078125 2.03125 -2.78125 1.84375 -2.578125 C 1.734375 -2.984375 1.34375 -3.078125 1.125 -3.078125 C 0.859375 -3.078125 0.6875 -2.890625 0.578125 -2.703125 C 0.4375 -2.46875 0.328125 -2.046875 0.328125 -2 C 0.328125 -1.921875 0.421875 -1.921875 0.453125 -1.921875 C 0.546875 -1.921875 0.546875 -1.9375 0.59375 -2.125 C 0.703125 -2.53125 0.84375 -2.875 1.109375 -2.875 C 1.296875 -2.875 1.34375 -2.71875 1.34375 -2.53125 C 1.34375 -2.453125 1.328125 -2.375 1.3125 -2.328125 Z M 1.84375 -2.234375 C 2.25 -2.78125 2.59375 -2.875 2.8125 -2.875 C 3.09375 -2.875 3.328125 -2.671875 3.328125 -2.203125 C 3.328125 -1.921875 3.171875 -1.203125 2.96875 -0.796875 C 2.78125 -0.453125 2.453125 -0.125 2.09375 -0.125 C 1.59375 -0.125 1.46875 -0.65625 1.46875 -0.734375 C 1.46875 -0.765625 1.484375 -0.8125 1.484375 -0.84375 Z M 1.84375 -2.234375 "/>
</symbol>
<symbol overflow="visible" id="glyph5-3">
<path style="stroke:none;" d="M 3.421875 -4.75 C 3.421875 -4.84375 3.34375 -4.84375 3.3125 -4.84375 C 3.203125 -4.84375 3.203125 -4.796875 3.171875 -4.6875 L 2.78125 -3.09375 C 1.546875 -3.03125 0.484375 -2.140625 0.484375 -1.21875 C 0.484375 -0.421875 1.203125 0.046875 1.984375 0.078125 C 1.921875 0.296875 1.875 0.515625 1.8125 0.734375 C 1.734375 1.0625 1.671875 1.3125 1.671875 1.34375 C 1.671875 1.421875 1.765625 1.421875 1.78125 1.421875 C 1.890625 1.421875 1.890625 1.40625 1.9375 1.25 L 2.21875 0.078125 C 3.421875 0.03125 4.515625 -0.84375 4.515625 -1.796875 C 4.515625 -2.515625 3.875 -3.046875 3.015625 -3.078125 Z M 2.03125 -0.125 C 1.484375 -0.140625 1 -0.4375 1 -1.09375 C 1 -1.796875 1.53125 -2.78125 2.71875 -2.890625 Z M 2.96875 -2.890625 C 3.5 -2.859375 4 -2.578125 4 -1.90625 C 4 -1.15625 3.40625 -0.21875 2.265625 -0.125 Z M 2.96875 -2.890625 "/>
</symbol>
<symbol overflow="visible" id="glyph5-4">
<path style="stroke:none;" d="M 2.9375 -2.65625 C 2.796875 -2.890625 2.5625 -3.078125 2.21875 -3.078125 C 1.328125 -3.078125 0.421875 -2.09375 0.421875 -1.09375 C 0.421875 -0.40625 0.875 0.0625 1.484375 0.0625 C 1.859375 0.0625 2.1875 -0.140625 2.46875 -0.421875 C 2.59375 0 3 0.0625 3.1875 0.0625 C 3.4375 0.0625 3.609375 -0.078125 3.734375 -0.296875 C 3.890625 -0.578125 3.984375 -0.96875 3.984375 -1 C 3.984375 -1.09375 3.890625 -1.09375 3.875 -1.09375 C 3.765625 -1.09375 3.765625 -1.0625 3.71875 -0.875 C 3.625 -0.53125 3.5 -0.125 3.203125 -0.125 C 3.03125 -0.125 2.96875 -0.28125 2.96875 -0.46875 C 2.96875 -0.578125 3.03125 -0.84375 3.078125 -1.015625 C 3.125 -1.203125 3.203125 -1.484375 3.234375 -1.640625 L 3.375 -2.171875 C 3.421875 -2.359375 3.5 -2.6875 3.5 -2.71875 C 3.5 -2.875 3.375 -2.9375 3.265625 -2.9375 C 3.140625 -2.9375 2.984375 -2.859375 2.9375 -2.65625 Z M 2.5 -0.875 C 2.453125 -0.671875 2.296875 -0.53125 2.140625 -0.40625 C 2.078125 -0.34375 1.796875 -0.125 1.5 -0.125 C 1.234375 -0.125 0.984375 -0.3125 0.984375 -0.796875 C 0.984375 -1.171875 1.1875 -1.9375 1.359375 -2.21875 C 1.671875 -2.78125 2.03125 -2.875 2.21875 -2.875 C 2.703125 -2.875 2.84375 -2.34375 2.84375 -2.265625 C 2.84375 -2.25 2.828125 -2.1875 2.828125 -2.171875 Z M 2.5 -0.875 "/>
</symbol>
<symbol overflow="visible" id="glyph5-5">
<path style="stroke:none;" d="M 0.84375 -0.4375 C 0.828125 -0.34375 0.78125 -0.171875 0.78125 -0.15625 C 0.78125 0 0.90625 0.0625 1.015625 0.0625 C 1.140625 0.0625 1.25 -0.015625 1.296875 -0.078125 C 1.328125 -0.140625 1.375 -0.375 1.421875 -0.515625 C 1.453125 -0.640625 1.53125 -0.96875 1.5625 -1.140625 C 1.609375 -1.296875 1.65625 -1.453125 1.6875 -1.609375 C 1.765625 -1.890625 1.78125 -1.953125 1.984375 -2.234375 C 2.171875 -2.515625 2.5 -2.875 3.03125 -2.875 C 3.421875 -2.875 3.4375 -2.515625 3.4375 -2.390625 C 3.4375 -1.96875 3.140625 -1.203125 3.03125 -0.90625 C 2.953125 -0.703125 2.921875 -0.640625 2.921875 -0.53125 C 2.921875 -0.15625 3.21875 0.0625 3.578125 0.0625 C 4.28125 0.0625 4.578125 -0.890625 4.578125 -1 C 4.578125 -1.09375 4.5 -1.09375 4.46875 -1.09375 C 4.375 -1.09375 4.375 -1.046875 4.34375 -0.96875 C 4.1875 -0.40625 3.875 -0.125 3.609375 -0.125 C 3.453125 -0.125 3.421875 -0.21875 3.421875 -0.375 C 3.421875 -0.53125 3.46875 -0.625 3.59375 -0.9375 C 3.671875 -1.15625 3.953125 -1.890625 3.953125 -2.28125 C 3.953125 -2.953125 3.421875 -3.078125 3.046875 -3.078125 C 2.46875 -3.078125 2.078125 -2.71875 1.875 -2.4375 C 1.828125 -2.921875 1.421875 -3.078125 1.125 -3.078125 C 0.828125 -3.078125 0.671875 -2.859375 0.578125 -2.703125 C 0.421875 -2.4375 0.328125 -2.046875 0.328125 -2 C 0.328125 -1.921875 0.421875 -1.921875 0.453125 -1.921875 C 0.546875 -1.921875 0.546875 -1.9375 0.59375 -2.125 C 0.703125 -2.53125 0.84375 -2.875 1.109375 -2.875 C 1.296875 -2.875 1.34375 -2.71875 1.34375 -2.53125 C 1.34375 -2.40625 1.28125 -2.140625 1.21875 -1.953125 C 1.171875 -1.765625 1.109375 -1.484375 1.078125 -1.328125 Z M 0.84375 -0.4375 "/>
</symbol>
<symbol overflow="visible" id="glyph5-6">
<path style="stroke:none;" d="M 2.265625 -4.359375 C 2.265625 -4.46875 2.171875 -4.625 1.984375 -4.625 C 1.796875 -4.625 1.59375 -4.4375 1.59375 -4.234375 C 1.59375 -4.125 1.671875 -3.96875 1.875 -3.96875 C 2.0625 -3.96875 2.265625 -4.171875 2.265625 -4.359375 Z M 0.84375 -0.8125 C 0.8125 -0.71875 0.78125 -0.640625 0.78125 -0.515625 C 0.78125 -0.1875 1.046875 0.0625 1.4375 0.0625 C 2.125 0.0625 2.4375 -0.890625 2.4375 -1 C 2.4375 -1.09375 2.34375 -1.09375 2.328125 -1.09375 C 2.234375 -1.09375 2.21875 -1.046875 2.1875 -0.96875 C 2.03125 -0.40625 1.734375 -0.125 1.453125 -0.125 C 1.3125 -0.125 1.28125 -0.21875 1.28125 -0.375 C 1.28125 -0.53125 1.328125 -0.65625 1.390625 -0.8125 C 1.46875 -1 1.546875 -1.1875 1.609375 -1.375 C 1.671875 -1.546875 1.9375 -2.171875 1.953125 -2.265625 C 1.984375 -2.328125 2 -2.40625 2 -2.484375 C 2 -2.8125 1.71875 -3.078125 1.34375 -3.078125 C 0.640625 -3.078125 0.328125 -2.125 0.328125 -2 C 0.328125 -1.921875 0.421875 -1.921875 0.453125 -1.921875 C 0.546875 -1.921875 0.546875 -1.953125 0.578125 -2.03125 C 0.75 -2.625 1.0625 -2.875 1.3125 -2.875 C 1.421875 -2.875 1.484375 -2.828125 1.484375 -2.640625 C 1.484375 -2.46875 1.453125 -2.375 1.28125 -1.9375 Z M 0.84375 -0.8125 "/>
</symbol>
<symbol overflow="visible" id="glyph5-7">
<path style="stroke:none;" d="M 4.15625 -4.21875 C 4.21875 -4.46875 4.234375 -4.515625 4.625 -4.515625 C 4.703125 -4.515625 4.796875 -4.515625 4.796875 -4.65625 C 4.796875 -4.734375 4.75 -4.765625 4.703125 -4.765625 C 4.53125 -4.765625 4.109375 -4.734375 3.9375 -4.734375 C 3.796875 -4.734375 3.5625 -4.734375 3.40625 -4.734375 C 3.234375 -4.75 3.03125 -4.765625 2.859375 -4.765625 C 2.8125 -4.765625 2.703125 -4.765625 2.703125 -4.609375 C 2.703125 -4.515625 2.765625 -4.515625 2.96875 -4.515625 C 3.140625 -4.515625 3.15625 -4.515625 3.34375 -4.5 C 3.546875 -4.46875 3.5625 -4.453125 3.5625 -4.375 C 3.5625 -4.328125 3.5625 -4.3125 3.53125 -4.203125 L 2.734375 -1.015625 C 2.59375 -0.5 2.15625 -0.0625 1.703125 -0.0625 C 1.609375 -0.0625 1.15625 -0.078125 1 -0.421875 C 1.40625 -0.421875 1.5 -0.75 1.5 -0.875 C 1.5 -1.0625 1.328125 -1.171875 1.171875 -1.171875 C 0.984375 -1.171875 0.703125 -1.015625 0.703125 -0.625 C 0.703125 -0.171875 1.140625 0.140625 1.71875 0.140625 C 2.40625 0.140625 3.171875 -0.296875 3.359375 -1 Z M 4.15625 -4.21875 "/>
</symbol>
<symbol overflow="visible" id="glyph5-8">
<path style="stroke:none;" d="M 3.03125 -0.5625 C 2.984375 -0.421875 2.921875 -0.1875 2.921875 -0.15625 C 2.921875 0 3.046875 0.0625 3.15625 0.0625 C 3.296875 0.0625 3.40625 -0.015625 3.4375 -0.078125 C 3.46875 -0.140625 3.53125 -0.375 3.5625 -0.515625 C 3.59375 -0.640625 3.671875 -0.96875 3.71875 -1.140625 C 3.75 -1.296875 3.796875 -1.453125 3.828125 -1.609375 C 3.90625 -1.90625 3.90625 -1.921875 4.046875 -2.140625 C 4.265625 -2.484375 4.625 -2.875 5.15625 -2.875 C 5.546875 -2.875 5.578125 -2.5625 5.578125 -2.390625 C 5.578125 -1.96875 5.28125 -1.203125 5.15625 -0.90625 C 5.09375 -0.703125 5.0625 -0.640625 5.0625 -0.53125 C 5.0625 -0.15625 5.359375 0.0625 5.71875 0.0625 C 6.421875 0.0625 6.71875 -0.890625 6.71875 -1 C 6.71875 -1.09375 6.640625 -1.09375 6.609375 -1.09375 C 6.515625 -1.09375 6.515625 -1.046875 6.484375 -0.96875 C 6.328125 -0.40625 6.015625 -0.125 5.75 -0.125 C 5.59375 -0.125 5.5625 -0.21875 5.5625 -0.375 C 5.5625 -0.53125 5.609375 -0.625 5.734375 -0.9375 C 5.8125 -1.15625 6.09375 -1.890625 6.09375 -2.28125 C 6.09375 -2.390625 6.09375 -2.6875 5.84375 -2.890625 C 5.71875 -2.96875 5.515625 -3.078125 5.1875 -3.078125 C 4.5625 -3.078125 4.1875 -2.65625 3.953125 -2.375 C 3.90625 -2.96875 3.40625 -3.078125 3.046875 -3.078125 C 2.46875 -3.078125 2.078125 -2.71875 1.875 -2.4375 C 1.828125 -2.921875 1.421875 -3.078125 1.125 -3.078125 C 0.828125 -3.078125 0.671875 -2.859375 0.578125 -2.703125 C 0.421875 -2.4375 0.328125 -2.046875 0.328125 -2 C 0.328125 -1.921875 0.421875 -1.921875 0.453125 -1.921875 C 0.546875 -1.921875 0.546875 -1.9375 0.59375 -2.125 C 0.703125 -2.53125 0.84375 -2.875 1.109375 -2.875 C 1.296875 -2.875 1.34375 -2.71875 1.34375 -2.53125 C 1.34375 -2.40625 1.28125 -2.140625 1.21875 -1.953125 C 1.171875 -1.765625 1.109375 -1.484375 1.078125 -1.328125 L 0.84375 -0.4375 C 0.828125 -0.34375 0.78125 -0.171875 0.78125 -0.15625 C 0.78125 0 0.90625 0.0625 1.015625 0.0625 C 1.140625 0.0625 1.25 -0.015625 1.296875 -0.078125 C 1.328125 -0.140625 1.375 -0.375 1.421875 -0.515625 C 1.453125 -0.640625 1.53125 -0.96875 1.5625 -1.140625 C 1.609375 -1.296875 1.65625 -1.453125 1.6875 -1.609375 C 1.765625 -1.890625 1.78125 -1.953125 1.984375 -2.234375 C 2.171875 -2.515625 2.5 -2.875 3.03125 -2.875 C 3.421875 -2.875 3.4375 -2.515625 3.4375 -2.390625 C 3.4375 -2.21875 3.421875 -2.125 3.3125 -1.734375 Z M 3.03125 -0.5625 "/>
</symbol>
<symbol overflow="visible" id="glyph6-0">
<path style="stroke:none;" d=""/>
</symbol>
<symbol overflow="visible" id="glyph6-1">
<path style="stroke:none;" d="M 3.265625 -7.09375 C 3.3125 -7.203125 3.3125 -7.234375 3.3125 -7.28125 C 3.3125 -7.390625 3.234375 -7.484375 3.125 -7.484375 C 3.03125 -7.484375 2.953125 -7.421875 2.890625 -7.25 L 1.140625 -2.671875 C 1.125 -2.609375 1.09375 -2.546875 1.09375 -2.5 C 1.09375 -2.46875 1.09375 -2.4375 1.140625 -2.328125 L 2.890625 2.25 C 2.9375 2.359375 2.984375 2.5 3.125 2.5 C 3.234375 2.5 3.3125 2.40625 3.3125 2.296875 C 3.3125 2.265625 3.3125 2.25 3.265625 2.140625 L 1.5 -2.5 Z M 3.265625 -7.09375 "/>
</symbol>
<symbol overflow="visible" id="glyph6-2">
<path style="stroke:none;" d="M 2.71875 -2.328125 C 2.765625 -2.4375 2.765625 -2.46875 2.765625 -2.5 C 2.765625 -2.515625 2.765625 -2.546875 2.71875 -2.65625 L 0.984375 -7.25 C 0.921875 -7.421875 0.859375 -7.484375 0.75 -7.484375 C 0.640625 -7.484375 0.546875 -7.390625 0.546875 -7.28125 C 0.546875 -7.25 0.546875 -7.234375 0.59375 -7.125 L 2.359375 -2.5 L 0.59375 2.109375 C 0.546875 2.21875 0.546875 2.25 0.546875 2.296875 C 0.546875 2.40625 0.640625 2.5 0.75 2.5 C 0.875 2.5 0.921875 2.390625 0.953125 2.296875 Z M 2.71875 -2.328125 "/>
</symbol>
<symbol overflow="visible" id="glyph6-3">
<path style="stroke:none;" d="M 1.640625 -2.6875 C 2.1875 -3.109375 2.46875 -3.515625 2.546875 -3.65625 C 2.984375 -4.34375 3.078125 -4.96875 3.078125 -4.96875 C 3.078125 -5.09375 2.953125 -5.09375 2.875 -5.09375 C 2.703125 -5.09375 2.6875 -5.078125 2.65625 -4.890625 C 2.421875 -3.921875 1.828125 -3.09375 0.703125 -2.625 C 0.59375 -2.578125 0.5625 -2.5625 0.5625 -2.5 C 0.5625 -2.421875 0.609375 -2.40625 0.703125 -2.359375 C 1.75 -1.9375 2.40625 -1.15625 2.65625 -0.046875 C 2.6875 0.078125 2.703125 0.109375 2.875 0.109375 C 2.953125 0.109375 3.078125 0.109375 3.078125 -0.015625 C 3.078125 -0.03125 2.984375 -0.65625 2.5625 -1.328125 C 2.359375 -1.625 2.078125 -1.96875 1.640625 -2.296875 L 8.3125 -2.296875 C 7.765625 -1.875 7.5 -1.46875 7.421875 -1.328125 C 6.96875 -0.640625 6.890625 -0.015625 6.890625 -0.015625 C 6.890625 0.109375 7.015625 0.109375 7.09375 0.109375 C 7.25 0.109375 7.265625 0.09375 7.3125 -0.09375 C 7.53125 -1.0625 8.125 -1.90625 9.25 -2.359375 C 9.375 -2.40625 9.40625 -2.421875 9.40625 -2.5 C 9.40625 -2.5625 9.34375 -2.59375 9.328125 -2.609375 C 8.875 -2.765625 7.671875 -3.265625 7.296875 -4.9375 C 7.265625 -5.0625 7.25 -5.09375 7.09375 -5.09375 C 7.015625 -5.09375 6.890625 -5.09375 6.890625 -4.96875 C 6.890625 -4.953125 6.984375 -4.328125 7.390625 -3.65625 C 7.59375 -3.359375 7.890625 -3.015625 8.3125 -2.6875 Z M 1.640625 -2.6875 "/>
</symbol>
<symbol overflow="visible" id="glyph6-4">
<path style="stroke:none;" d="M 2.375 -3.625 C 0.390625 -2.546875 0.28125 -1.25 0.28125 -1.015625 C 0.28125 -0.265625 1.015625 0.21875 1.96875 0.21875 C 3.625 0.21875 4.96875 -1.359375 4.96875 -1.5625 C 4.96875 -1.625 4.921875 -1.640625 4.859375 -1.640625 C 4.75 -1.640625 4.359375 -1.5 4.140625 -1.203125 C 3.921875 -0.90625 3.515625 -0.328125 2.625 -0.328125 C 1.90625 -0.328125 1.125 -0.703125 1.125 -1.453125 C 1.125 -1.9375 1.6875 -3.40625 3.265625 -3.46875 C 3.734375 -3.484375 4.078125 -3.84375 4.078125 -3.953125 C 4.078125 -4 4.03125 -4.015625 3.984375 -4.015625 C 2.578125 -4.078125 2.296875 -4.765625 2.296875 -5.15625 C 2.296875 -5.390625 2.4375 -6.484375 3.84375 -6.484375 C 4.03125 -6.484375 4.78125 -6.453125 4.78125 -5.9375 C 4.78125 -5.765625 4.703125 -5.625 4.671875 -5.578125 C 4.640625 -5.546875 4.609375 -5.5 4.609375 -5.46875 C 4.609375 -5.390625 4.6875 -5.390625 4.71875 -5.390625 C 5.015625 -5.390625 5.625 -5.78125 5.625 -6.34375 C 5.625 -6.9375 4.9375 -7.03125 4.5 -7.03125 C 3.140625 -7.03125 1.453125 -5.953125 1.453125 -4.734375 C 1.453125 -4.140625 1.890625 -3.78125 2.375 -3.625 Z M 2.375 -3.625 "/>
</symbol>
<symbol overflow="visible" id="glyph6-5">
<path style="stroke:none;" d="M 6.5625 -2.296875 C 6.734375 -2.296875 6.921875 -2.296875 6.921875 -2.5 C 6.921875 -2.6875 6.734375 -2.6875 6.5625 -2.6875 L 1.171875 -2.6875 C 1 -2.6875 0.828125 -2.6875 0.828125 -2.5 C 0.828125 -2.296875 1 -2.296875 1.171875 -2.296875 Z M 6.5625 -2.296875 "/>
</symbol>
<symbol overflow="visible" id="glyph7-0">
<path style="stroke:none;" d=""/>
</symbol>
<symbol overflow="visible" id="glyph7-1">
<path style="stroke:none;" d="M 1.328125 -0.828125 C 1.859375 -1.40625 2.15625 -1.65625 2.515625 -1.96875 C 2.515625 -1.96875 3.125 -2.5 3.484375 -2.859375 C 4.4375 -3.78125 4.65625 -4.265625 4.65625 -4.3125 C 4.65625 -4.40625 4.5625 -4.40625 4.546875 -4.40625 C 4.46875 -4.40625 4.453125 -4.390625 4.390625 -4.296875 C 4.09375 -3.8125 3.890625 -3.65625 3.65625 -3.65625 C 3.40625 -3.65625 3.296875 -3.8125 3.140625 -3.984375 C 2.953125 -4.203125 2.78125 -4.40625 2.453125 -4.40625 C 1.703125 -4.40625 1.25 -3.484375 1.25 -3.265625 C 1.25 -3.21875 1.28125 -3.15625 1.359375 -3.15625 C 1.453125 -3.15625 1.46875 -3.203125 1.5 -3.265625 C 1.6875 -3.734375 2.265625 -3.734375 2.34375 -3.734375 C 2.546875 -3.734375 2.734375 -3.671875 2.96875 -3.59375 C 3.375 -3.4375 3.484375 -3.4375 3.734375 -3.4375 C 3.375 -3.015625 2.546875 -2.296875 2.359375 -2.140625 L 1.453125 -1.296875 C 0.78125 -0.625 0.421875 -0.0625 0.421875 0.015625 C 0.421875 0.109375 0.53125 0.109375 0.546875 0.109375 C 0.625 0.109375 0.640625 0.09375 0.703125 -0.015625 C 0.9375 -0.375 1.234375 -0.640625 1.5625 -0.640625 C 1.78125 -0.640625 1.890625 -0.546875 2.140625 -0.265625 C 2.296875 -0.046875 2.484375 0.109375 2.765625 0.109375 C 3.765625 0.109375 4.34375 -1.15625 4.34375 -1.421875 C 4.34375 -1.46875 4.296875 -1.53125 4.21875 -1.53125 C 4.125 -1.53125 4.109375 -1.46875 4.078125 -1.390625 C 3.84375 -0.75 3.203125 -0.5625 2.875 -0.5625 C 2.6875 -0.5625 2.5 -0.625 2.296875 -0.6875 C 1.953125 -0.8125 1.796875 -0.859375 1.59375 -0.859375 C 1.578125 -0.859375 1.421875 -0.859375 1.328125 -0.828125 Z M 1.328125 -0.828125 "/>
</symbol>
<symbol overflow="visible" id="glyph7-2">
<path style="stroke:none;" d="M 5.8125 -4.015625 C 5.921875 -4.125 5.921875 -4.140625 5.921875 -4.171875 C 5.921875 -4.234375 5.875 -4.296875 5.796875 -4.296875 C 5.734375 -4.296875 5.703125 -4.25 5.640625 -4.171875 L 3.359375 -1.640625 C 2.953125 -2.90625 2.875 -3.15625 2.65625 -3.671875 C 2.546875 -3.90625 2.328125 -4.40625 1.453125 -4.40625 C 0.875 -4.40625 0.609375 -3.890625 0.609375 -3.75 C 0.609375 -3.734375 0.609375 -3.65625 0.734375 -3.65625 C 0.8125 -3.65625 0.84375 -3.703125 0.859375 -3.765625 C 1 -4.140625 1.328125 -4.1875 1.390625 -4.1875 C 1.6875 -4.1875 1.984375 -3.421875 2.15625 -2.984375 C 2.46875 -2.203125 2.796875 -1.046875 2.796875 -1.015625 C 2.796875 -1 2.796875 -0.984375 2.71875 -0.90625 L 0.421875 1.65625 C 0.3125 1.765625 0.3125 1.78125 0.3125 1.8125 C 0.3125 1.875 0.375 1.9375 0.421875 1.9375 C 0.5 1.9375 0.546875 1.859375 0.59375 1.828125 L 2.875 -0.734375 C 3.1875 0.296875 3.3125 0.6875 3.546875 1.25 C 3.671875 1.546875 3.890625 2.046875 4.78125 2.046875 C 5.359375 2.046875 5.625 1.53125 5.625 1.390625 C 5.625 1.34375 5.609375 1.28125 5.515625 1.28125 C 5.40625 1.28125 5.40625 1.328125 5.375 1.421875 C 5.28125 1.671875 5.03125 1.828125 4.84375 1.828125 C 4.34375 1.828125 3.65625 -0.59375 3.4375 -1.359375 Z M 5.8125 -4.015625 "/>
</symbol>
<symbol overflow="visible" id="glyph7-3">
<path style="stroke:none;" d="M 3.65625 -3.984375 L 4.515625 -3.984375 C 4.71875 -3.984375 4.8125 -3.984375 4.8125 -4.1875 C 4.8125 -4.296875 4.71875 -4.296875 4.546875 -4.296875 L 3.71875 -4.296875 L 3.921875 -5.4375 C 3.96875 -5.640625 4.109375 -6.34375 4.171875 -6.46875 C 4.25 -6.65625 4.421875 -6.8125 4.640625 -6.8125 C 4.671875 -6.8125 4.9375 -6.8125 5.125 -6.625 C 4.6875 -6.59375 4.578125 -6.234375 4.578125 -6.09375 C 4.578125 -5.859375 4.765625 -5.734375 4.953125 -5.734375 C 5.21875 -5.734375 5.5 -5.96875 5.5 -6.34375 C 5.5 -6.796875 5.046875 -7.03125 4.640625 -7.03125 C 4.296875 -7.03125 3.671875 -6.84375 3.375 -5.859375 C 3.3125 -5.65625 3.28125 -5.546875 3.046875 -4.296875 L 2.359375 -4.296875 C 2.15625 -4.296875 2.046875 -4.296875 2.046875 -4.109375 C 2.046875 -3.984375 2.140625 -3.984375 2.328125 -3.984375 L 2.984375 -3.984375 L 2.25 -0.046875 C 2.0625 0.921875 1.890625 1.828125 1.375 1.828125 C 1.328125 1.828125 1.09375 1.828125 0.890625 1.640625 C 1.359375 1.609375 1.453125 1.25 1.453125 1.109375 C 1.453125 0.875 1.265625 0.75 1.078125 0.75 C 0.8125 0.75 0.53125 0.984375 0.53125 1.359375 C 0.53125 1.796875 0.96875 2.046875 1.375 2.046875 C 1.921875 2.046875 2.328125 1.453125 2.5 1.078125 C 2.828125 0.453125 3.046875 -0.75 3.0625 -0.828125 Z M 3.65625 -3.984375 "/>
</symbol>
<symbol overflow="visible" id="glyph7-4">
<path style="stroke:none;" d="M 6.734375 -4.96875 C 6.84375 -5.03125 6.921875 -5.078125 6.921875 -5.1875 C 6.921875 -5.296875 6.828125 -5.390625 6.71875 -5.390625 C 6.6875 -5.390625 6.671875 -5.390625 6.546875 -5.3125 L 1.015625 -2.71875 C 0.90625 -2.65625 0.828125 -2.609375 0.828125 -2.5 C 0.828125 -2.375 0.90625 -2.328125 1.015625 -2.265625 L 6.546875 0.328125 C 6.671875 0.40625 6.6875 0.40625 6.71875 0.40625 C 6.828125 0.40625 6.921875 0.3125 6.921875 0.203125 C 6.921875 0.09375 6.84375 0.046875 6.734375 -0.015625 L 1.5 -2.5 Z M 6.734375 -4.96875 "/>
</symbol>
<symbol overflow="visible" id="glyph7-5">
<path style="stroke:none;" d="M 5.390625 -6.078125 C 5.46875 -6.40625 5.5 -6.5 6.046875 -6.5 C 6.203125 -6.5 6.3125 -6.5 6.3125 -6.6875 C 6.3125 -6.78125 6.25 -6.8125 6.171875 -6.8125 C 5.921875 -6.8125 5.3125 -6.78125 5.0625 -6.78125 C 4.734375 -6.78125 3.921875 -6.8125 3.59375 -6.8125 C 3.515625 -6.8125 3.390625 -6.8125 3.390625 -6.609375 C 3.390625 -6.5 3.46875 -6.5 3.734375 -6.5 C 3.953125 -6.5 4.0625 -6.5 4.3125 -6.484375 C 4.546875 -6.453125 4.609375 -6.421875 4.609375 -6.28125 C 4.609375 -6.21875 4.59375 -6.15625 4.578125 -6.078125 L 3.421875 -1.5 C 3.1875 -0.53125 2.515625 0 2 0 C 1.734375 0 1.203125 -0.09375 1.046875 -0.625 C 1.078125 -0.609375 1.140625 -0.609375 1.171875 -0.609375 C 1.5625 -0.609375 1.8125 -0.953125 1.8125 -1.25 C 1.8125 -1.5625 1.546875 -1.671875 1.375 -1.671875 C 1.203125 -1.671875 0.703125 -1.546875 0.703125 -0.875 C 0.703125 -0.25 1.234375 0.21875 2.03125 0.21875 C 2.9375 0.21875 3.984375 -0.4375 4.234375 -1.421875 Z M 5.390625 -6.078125 "/>
</symbol>
<symbol overflow="visible" id="glyph7-6">
<path style="stroke:none;" d="M 4.609375 -3.375 C 4.515625 -4 4.109375 -4.5625 3.328125 -4.5625 C 2.71875 -4.5625 2.078125 -4.390625 1.296875 -3.625 C 0.46875 -2.796875 0.40625 -1.859375 0.40625 -1.5625 C 0.40625 -0.9375 0.84375 0.21875 2.234375 0.21875 C 4.609375 0.21875 5.640625 -3.125 5.640625 -4.5625 C 5.640625 -6.140625 4.71875 -7.140625 3.484375 -7.140625 C 2.046875 -7.140625 1.578125 -5.84375 1.578125 -5.5625 C 1.578125 -5.421875 1.671875 -5.21875 1.96875 -5.21875 C 2.296875 -5.21875 2.5 -5.515625 2.5 -5.734375 C 2.5 -6.09375 2.1875 -6.09375 2.03125 -6.09375 C 2.46875 -6.828125 3.1875 -6.890625 3.46875 -6.890625 C 4.203125 -6.890625 4.890625 -6.375 4.890625 -5.078125 C 4.890625 -4.6875 4.828125 -4.1875 4.625 -3.375 Z M 2.265625 -0.0625 C 1.171875 -0.0625 1.171875 -1.09375 1.171875 -1.1875 C 1.171875 -1.453125 1.421875 -2.84375 1.828125 -3.453125 C 2.21875 -4.015625 2.71875 -4.34375 3.328125 -4.34375 C 4.421875 -4.34375 4.4375 -3.21875 4.4375 -3.015625 C 4.4375 -2.296875 3.796875 -0.0625 2.265625 -0.0625 Z M 2.265625 -0.0625 "/>
</symbol>
<symbol overflow="visible" id="glyph7-7">
<path style="stroke:none;" d="M 6.734375 -2.265625 C 6.84375 -2.328125 6.921875 -2.375 6.921875 -2.5 C 6.921875 -2.609375 6.84375 -2.65625 6.734375 -2.71875 L 1.203125 -5.3125 C 1.078125 -5.390625 1.0625 -5.390625 1.03125 -5.390625 C 0.921875 -5.390625 0.828125 -5.296875 0.828125 -5.1875 C 0.828125 -5.09375 0.875 -5.03125 1.015625 -4.96875 L 6.25 -2.5 L 1.015625 -0.015625 C 0.875 0.046875 0.828125 0.109375 0.828125 0.203125 C 0.828125 0.3125 0.921875 0.40625 1.03125 0.40625 C 1.0625 0.40625 1.078125 0.40625 1.203125 0.328125 Z M 6.734375 -2.265625 "/>
</symbol>
<symbol overflow="visible" id="glyph8-0">
<path style="stroke:none;" d=""/>
</symbol>
<symbol overflow="visible" id="glyph8-1">
<path style="stroke:none;" d="M 2.46875 -5.21875 C 1.15625 -4.296875 0.796875 -2.8125 0.796875 -1.75 C 0.796875 -0.765625 1.09375 0.765625 2.46875 1.734375 C 2.53125 1.734375 2.609375 1.734375 2.609375 1.65625 C 2.609375 1.609375 2.59375 1.59375 2.546875 1.546875 C 1.609375 0.703125 1.28125 -0.46875 1.28125 -1.734375 C 1.28125 -3.625 2 -4.546875 2.5625 -5.0625 C 2.59375 -5.09375 2.609375 -5.109375 2.609375 -5.140625 C 2.609375 -5.21875 2.53125 -5.21875 2.46875 -5.21875 Z M 2.46875 -5.21875 "/>
</symbol>
<symbol overflow="visible" id="glyph8-2">
<path style="stroke:none;" d="M 0.625 -5.21875 C 0.578125 -5.21875 0.5 -5.21875 0.5 -5.140625 C 0.5 -5.109375 0.515625 -5.09375 0.5625 -5.03125 C 1.15625 -4.484375 1.828125 -3.546875 1.828125 -1.75 C 1.828125 -0.296875 1.375 0.8125 0.625 1.484375 C 0.5 1.609375 0.5 1.609375 0.5 1.65625 C 0.5 1.6875 0.515625 1.734375 0.578125 1.734375 C 0.671875 1.734375 1.328125 1.28125 1.796875 0.40625 C 2.09375 -0.171875 2.296875 -0.921875 2.296875 -1.734375 C 2.296875 -2.71875 2 -4.25 0.625 -5.21875 Z M 0.625 -5.21875 "/>
</symbol>
<symbol overflow="visible" id="glyph9-0">
<path style="stroke:none;" d=""/>
</symbol>
<symbol overflow="visible" id="glyph9-1">
<path style="stroke:none;" d="M 2.71875 8.765625 C 2.578125 10.40625 2.21875 10.859375 1.65625 10.859375 C 1.53125 10.859375 1.21875 10.828125 1.015625 10.640625 C 1.3125 10.609375 1.390625 10.375 1.390625 10.234375 C 1.390625 9.953125 1.171875 9.8125 0.984375 9.8125 C 0.78125 9.8125 0.5625 9.953125 0.5625 10.25 C 0.5625 10.71875 1.0625 11.078125 1.65625 11.078125 C 2.609375 11.078125 3.078125 10.203125 3.296875 9.3125 C 3.421875 8.796875 3.78125 5.890625 3.875 4.78125 L 4.0625 2.296875 C 4.203125 0.46875 4.53125 0.21875 4.984375 0.21875 C 5.078125 0.21875 5.390625 0.234375 5.609375 0.421875 C 5.328125 0.46875 5.25 0.703125 5.25 0.84375 C 5.25 1.125 5.46875 1.25 5.65625 1.25 C 5.859375 1.25 6.078125 1.125 6.078125 0.828125 C 6.078125 0.34375 5.578125 0 4.96875 0 C 4.03125 0 3.640625 0.96875 3.46875 1.71875 C 3.34375 2.265625 2.984375 5.078125 2.90625 6.296875 Z M 2.71875 8.765625 "/>
</symbol>
<symbol overflow="visible" id="glyph10-0">
<path style="stroke:none;" d=""/>
</symbol>
<symbol overflow="visible" id="glyph10-1">
<path style="stroke:none;" d="M 1.84375 -2.515625 C 0.640625 -1.9375 0.328125 -1.078125 0.328125 -0.734375 C 0.328125 -0.15625 0.953125 0.140625 1.671875 0.140625 C 2.9375 0.140625 3.953125 -0.96875 3.953125 -1.109375 C 3.953125 -1.15625 3.890625 -1.15625 3.875 -1.15625 C 3.859375 -1.15625 3.609375 -1.15625 3.328125 -0.84375 C 3.15625 -0.640625 2.8125 -0.28125 2.15625 -0.28125 C 1.734375 -0.28125 0.984375 -0.453125 0.984375 -1.046875 C 0.984375 -1.46875 1.421875 -2.375 2.59375 -2.40625 C 2.71875 -2.40625 2.8125 -2.40625 3 -2.515625 C 3.0625 -2.578125 3.21875 -2.6875 3.21875 -2.78125 C 3.21875 -2.828125 3.15625 -2.828125 3.15625 -2.828125 C 2.140625 -2.859375 1.8125 -3.21875 1.8125 -3.609375 C 1.8125 -3.890625 1.96875 -4.140625 2.125 -4.265625 C 2.375 -4.421875 2.765625 -4.46875 2.984375 -4.46875 C 3.078125 -4.46875 3.265625 -4.453125 3.453125 -4.40625 C 3.546875 -4.390625 3.71875 -4.328125 3.71875 -4.09375 C 3.71875 -4.015625 3.6875 -3.9375 3.65625 -3.875 C 3.625 -3.859375 3.609375 -3.8125 3.609375 -3.796875 C 3.609375 -3.75 3.671875 -3.734375 3.703125 -3.734375 C 3.890625 -3.734375 4.359375 -4 4.359375 -4.40625 C 4.359375 -4.796875 3.9375 -4.90625 3.484375 -4.90625 C 2.328125 -4.90625 1.15625 -4.125 1.15625 -3.296875 C 1.15625 -2.859375 1.515625 -2.625 1.84375 -2.515625 Z M 1.84375 -2.515625 "/>
</symbol>
<symbol overflow="visible" id="glyph11-0">
<path style="stroke:none;" d=""/>
</symbol>
<symbol overflow="visible" id="glyph11-1">
<path style="stroke:none;" d="M 2.875 -1.609375 C 2.90625 -1.71875 2.953125 -1.90625 2.953125 -1.921875 C 2.953125 -2.015625 2.890625 -2.109375 2.765625 -2.109375 C 2.6875 -2.109375 2.5625 -2.046875 2.515625 -1.90625 C 2.421875 -2.03125 2.234375 -2.203125 1.921875 -2.203125 C 1.21875 -2.203125 0.515625 -1.515625 0.515625 -0.8125 C 0.515625 -0.296875 0.890625 0.0625 1.390625 0.0625 C 1.796875 0.0625 2.125 -0.234375 2.1875 -0.296875 C 2.265625 -0.046875 2.546875 0.0625 2.765625 0.0625 C 2.96875 0.0625 3.109375 -0.0625 3.203125 -0.21875 C 3.34375 -0.421875 3.40625 -0.6875 3.40625 -0.71875 C 3.40625 -0.78125 3.328125 -0.78125 3.296875 -0.78125 C 3.21875 -0.78125 3.203125 -0.75 3.1875 -0.671875 C 3.09375 -0.3125 2.96875 -0.109375 2.796875 -0.109375 C 2.65625 -0.109375 2.59375 -0.21875 2.59375 -0.375 C 2.59375 -0.453125 2.640625 -0.640625 2.671875 -0.78125 Z M 2.21875 -0.65625 C 2.1875 -0.59375 2.1875 -0.578125 2.109375 -0.484375 C 1.921875 -0.265625 1.65625 -0.109375 1.40625 -0.109375 C 1.234375 -0.109375 0.96875 -0.203125 0.96875 -0.625 C 0.96875 -0.859375 1.09375 -1.375 1.265625 -1.640625 C 1.453125 -1.90625 1.71875 -2.03125 1.921875 -2.03125 C 2.140625 -2.03125 2.359375 -1.90625 2.4375 -1.59375 Z M 2.21875 -0.65625 "/>
</symbol>
</g>
<clipPath id="clip1">
  <path d="M 271 64 L 387.84375 64 L 387.84375 167 L 271 167 Z M 271 64 "/>
</clipPath>
<clipPath id="clip2">
  <path d="M 338 68 L 387.84375 68 L 387.84375 119 L 338 119 Z M 338 68 "/>
</clipPath>
<clipPath id="clip3">
  <path d="M 338 112 L 387.84375 112 L 387.84375 163 L 338 163 Z M 338 112 "/>
</clipPath>
<clipPath id="clip4">
  <path d="M 155 143 L 235 143 L 235 187.515625 L 155 187.515625 Z M 155 143 "/>
</clipPath>
</defs>
<g id="surface1">
<g clip-path="url(#clip1)" clip-rule="nonzero">
<path style="fill:none;stroke-width:0.99628;stroke-linecap:butt;stroke-linejoin:miter;stroke:rgb(0%,0%,0%);stroke-opacity:1;stroke-miterlimit:10;" d="M 188.674281 37.00075 L 94.795375 37.00075 C 92.596156 37.00075 90.811 35.215594 90.811 33.016375 L 90.811 -33.014875 C 90.811 -35.218 92.596156 -37.003156 94.795375 -37.003156 L 188.674281 -37.003156 C 190.8735 -37.003156 192.658656 -35.218 192.658656 -33.014875 L 192.658656 33.016375 C 192.658656 35.215594 190.8735 37.00075 188.674281 37.00075 Z M 188.674281 37.00075 " transform="matrix(1,0,0,-1,194.689,115.532)"/>
</g>
<path style="fill:none;stroke-width:0.99628;stroke-linecap:butt;stroke-linejoin:miter;stroke:rgb(0%,50%,0%);stroke-opacity:1;stroke-miterlimit:10;" d="M 19.840719 0.00075 C 19.840719 10.957781 10.957906 19.8445 0.000875 19.8445 C -10.960062 19.8445 -19.842875 10.957781 -19.842875 0.00075 C -19.842875 -10.960188 -10.960062 -19.843 0.000875 -19.843 C 10.957906 -19.843 19.840719 -10.960188 19.840719 0.00075 Z M 19.840719 0.00075 " transform="matrix(1,0,0,-1,336.421,115.532)"/>
<path style="fill:none;stroke-width:0.99628;stroke-linecap:butt;stroke-linejoin:miter;stroke:rgb(0%,0%,50%);stroke-opacity:1;stroke-miterlimit:10;" d="M -46.440531 32.516375 L -16.253031 11.379656 " transform="matrix(1,0,0,-1,336.421,115.532)"/>
<path style="fill:none;stroke-width:0.99628;stroke-linecap:butt;stroke-linejoin:miter;stroke:rgb(0%,0%,39.99939%);stroke-opacity:1;stroke-miterlimit:10;" d="M -31.581156 22.114031 L -32.088969 22.4695 " transform="matrix(1,0,0,-1,336.421,115.532)"/>
<path style=" stroke:none;fill-rule:nonzero;fill:rgb(0%,0%,39.99939%);fill-opacity:1;" d="M 306.699219 94.71875 L 304.238281 90.175781 L 304.332031 93.0625 L 301.585938 93.960938 "/>
<path style="fill:none;stroke-width:0.99628;stroke-linecap:butt;stroke-linejoin:miter;stroke:rgb(0%,0%,50%);stroke-opacity:1;stroke-miterlimit:10;" d="M -46.440531 -32.518781 L -16.253031 -11.382063 " transform="matrix(1,0,0,-1,336.421,115.532)"/>
<path style="fill:none;stroke-width:0.99628;stroke-linecap:butt;stroke-linejoin:miter;stroke:rgb(0%,0%,39.99939%);stroke-opacity:1;stroke-miterlimit:10;" d="M -31.581156 -22.112531 L -32.088969 -22.468 " transform="matrix(1,0,0,-1,336.421,115.532)"/>
<path style=" stroke:none;fill-rule:nonzero;fill:rgb(0%,0%,39.99939%);fill-opacity:1;" d="M 306.699219 136.34375 L 301.585938 137.101562 L 304.332031 138 L 304.238281 140.886719 "/>
<g clip-path="url(#clip2)" clip-rule="nonzero">
<path style="fill:none;stroke-width:0.99628;stroke-linecap:butt;stroke-linejoin:miter;stroke:rgb(0%,0%,50%);stroke-opacity:1;stroke-miterlimit:10;" d="M 46.442281 32.516375 L 16.254781 11.379656 " transform="matrix(1,0,0,-1,336.421,115.532)"/>
</g>
<path style="fill:none;stroke-width:0.99628;stroke-linecap:butt;stroke-linejoin:miter;stroke:rgb(0%,0%,39.99939%);stroke-opacity:1;stroke-miterlimit:10;" d="M 31.114156 21.785906 L 30.606344 21.430437 " transform="matrix(1,0,0,-1,336.421,115.532)"/>
<path style=" stroke:none;fill-rule:nonzero;fill:rgb(0%,0%,39.99939%);fill-opacity:1;" d="M 369.394531 92.445312 L 364.28125 93.203125 L 367.027344 94.101562 L 366.933594 96.988281 "/>
<g clip-path="url(#clip3)" clip-rule="nonzero">
<path style="fill:none;stroke-width:0.99628;stroke-linecap:butt;stroke-linejoin:miter;stroke:rgb(0%,0%,50%);stroke-opacity:1;stroke-miterlimit:10;" d="M 46.442281 -32.518781 L 16.254781 -11.382063 " transform="matrix(1,0,0,-1,336.421,115.532)"/>
</g>
<path style="fill:none;stroke-width:0.99628;stroke-linecap:butt;stroke-linejoin:miter;stroke:rgb(0%,0%,39.99939%);stroke-opacity:1;stroke-miterlimit:10;" d="M 31.114156 -21.788313 L 30.606344 -21.432844 " transform="matrix(1,0,0,-1,336.421,115.532)"/>
<path style=" stroke:none;fill-rule:nonzero;fill:rgb(0%,0%,39.99939%);fill-opacity:1;" d="M 369.394531 138.621094 L 366.933594 134.074219 L 367.027344 136.964844 L 364.28125 137.863281 "/>
<g style="fill:rgb(0%,50%,0%);fill-opacity:1;">
  <use xlink:href="#glyph0-1" x="327.807" y="120.434"/>
</g>
<path style="fill:none;stroke-width:0.99628;stroke-linecap:butt;stroke-linejoin:miter;stroke:rgb(0%,0%,0%);stroke-opacity:1;stroke-miterlimit:10;" d="M 52.924281 115.035906 L -52.923375 115.035906 C -55.1265 115.035906 -56.911656 113.25075 -56.911656 111.051531 L -56.911656 59.028094 C -56.911656 56.828875 -55.1265 55.043719 -52.923375 55.043719 L 52.924281 55.043719 C 55.127406 55.043719 56.908656 56.828875 56.908656 59.028094 L 56.908656 111.051531 C 56.908656 113.25075 55.127406 115.035906 52.924281 115.035906 Z M 52.924281 115.035906 " transform="matrix(1,0,0,-1,194.689,115.532)"/>
<path style="fill:none;stroke-width:0.3985;stroke-linecap:butt;stroke-linejoin:miter;stroke:rgb(69.999695%,0%,0%);stroke-opacity:1;stroke-dasharray:2.98883,2.98883;stroke-miterlimit:10;" d="M -51.024937 12.754719 L 51.025844 12.754719 " transform="matrix(1,0,0,-1,194.689,30.493)"/>
<path style="fill:none;stroke-width:0.3985;stroke-linecap:butt;stroke-linejoin:miter;stroke:rgb(69.999695%,0%,0%);stroke-opacity:1;stroke-dasharray:2.98883,2.98883;stroke-miterlimit:10;" d="M -1.700719 25.512531 L 32.314906 -25.510906 " transform="matrix(1,0,0,-1,194.689,30.493)"/>
<path style="fill:none;stroke-width:0.99628;stroke-linecap:butt;stroke-linejoin:miter;stroke:rgb(0%,0%,50%);stroke-opacity:1;stroke-miterlimit:10;" d="M -51.024937 12.754719 C -5.103062 12.754719 6.803188 12.754719 30.713344 -23.108563 " transform="matrix(1,0,0,-1,194.689,30.493)"/>
<path style=" stroke:none;fill-rule:nonzero;fill:rgb(0%,0%,50%);fill-opacity:1;" d="M 227.003906 56.003906 L 226.363281 50.878906 L 225.402344 53.601562 L 222.515625 53.441406 "/>
<path style="fill:none;stroke-width:0.99628;stroke-linecap:butt;stroke-linejoin:miter;stroke:rgb(0%,0%,50%);stroke-opacity:1;stroke-miterlimit:10;" d="M 51.025844 -12.757 C 5.103969 -12.757 -6.802281 -12.757 -30.712437 23.110187 " transform="matrix(1,0,0,-1,194.689,30.493)"/>
<path style=" stroke:none;fill-rule:nonzero;fill:rgb(0%,0%,50%);fill-opacity:1;" d="M 162.375 4.980469 L 163.015625 10.109375 L 163.976562 7.382812 L 166.859375 7.542969 "/>
<path style="fill:none;stroke-width:0.3985;stroke-linecap:butt;stroke-linejoin:miter;stroke:rgb(69.999695%,0%,0%);stroke-opacity:1;stroke-miterlimit:10;" d="M 21.260219 12.754719 C 21.260219 7.860187 18.783656 3.297687 14.678188 0.629719 " transform="matrix(1,0,0,-1,194.689,30.493)"/>
<g style="fill:rgb(69.999695%,0%,0%);fill-opacity:1;">
  <use xlink:href="#glyph1-1" x="220.053" y="29.635"/>
</g>
<path style="fill-rule:nonzero;fill:rgb(0%,0%,50%);fill-opacity:1;stroke-width:0.3985;stroke-linecap:butt;stroke-linejoin:miter;stroke:rgb(0%,0%,50%);stroke-opacity:1;stroke-miterlimit:10;" d="M -49.325719 12.754719 C -49.325719 13.696125 -50.083531 14.457844 -51.024937 14.457844 C -51.962437 14.457844 -52.724156 13.696125 -52.724156 12.754719 C -52.724156 11.817219 -51.962437 11.0555 -51.024937 11.0555 C -50.083531 11.0555 -49.325719 11.817219 -49.325719 12.754719 Z M -49.325719 12.754719 " transform="matrix(1,0,0,-1,194.689,30.493)"/>
<path style="fill-rule:nonzero;fill:rgb(0%,0%,50%);fill-opacity:1;stroke-width:0.3985;stroke-linecap:butt;stroke-linejoin:miter;stroke:rgb(0%,0%,50%);stroke-opacity:1;stroke-miterlimit:10;" d="M 52.725063 -12.757 C 52.725063 -11.815594 51.963344 -11.053875 51.025844 -11.053875 C 50.084438 -11.053875 49.322719 -11.815594 49.322719 -12.757 C 49.322719 -13.6945 50.084438 -14.456219 51.025844 -14.456219 C 51.963344 -14.456219 52.725063 -13.6945 52.725063 -12.757 Z M 52.725063 -12.757 " transform="matrix(1,0,0,-1,194.689,30.493)"/>
<path style="fill:none;stroke-width:0.99628;stroke-linecap:butt;stroke-linejoin:miter;stroke:rgb(0%,0%,0%);stroke-opacity:1;stroke-miterlimit:10;" d="M -93.259312 38.309344 L -190.208531 38.309344 C -192.40775 38.309344 -194.192906 36.528094 -194.192906 34.324969 L -194.192906 -34.327375 C -194.192906 -36.526594 -192.40775 -38.31175 -190.208531 -38.31175 L -93.259312 -38.31175 C -91.060094 -38.31175 -89.274937 -36.526594 -89.274937 -34.327375 L -89.274937 34.324969 C -89.274937 36.528094 -91.060094 38.309344 -93.259312 38.309344 Z M -93.259312 38.309344 " transform="matrix(1,0,0,-1,194.689,115.532)"/>
<path style="fill:none;stroke-width:0.99628;stroke-linecap:butt;stroke-linejoin:miter;stroke:rgb(0%,0%,50%);stroke-opacity:1;stroke-miterlimit:10;" d="M 28.34675 -0.0015625 C 28.34675 11.740625 15.655344 21.260156 -0.00090625 21.260156 C -15.657156 21.260156 -28.348563 11.740625 -28.348563 -0.0015625 C -28.348563 -11.739844 -15.657156 -21.259375 -0.00090625 -21.259375 C 15.655344 -21.259375 28.34675 -11.739844 28.34675 -0.0015625 Z M 28.34675 -0.0015625 " transform="matrix(1,0,0,-1,37.622,128.1)"/>
<path style="fill:none;stroke-width:0.3985;stroke-linecap:butt;stroke-linejoin:miter;stroke:rgb(0%,50%,50%);stroke-opacity:1;stroke-dasharray:2.98883,2.98883;stroke-miterlimit:10;" d="M -28.348563 -0.0015625 L 42.518625 -0.0015625 " transform="matrix(1,0,0,-1,37.622,128.1)"/>
<path style="fill:none;stroke-width:0.99628;stroke-linecap:butt;stroke-linejoin:miter;stroke:rgb(0%,0%,50%);stroke-opacity:1;stroke-miterlimit:10;" d="M 22.327219 19.435937 C 16.456125 29.607812 0.706125 31.502344 -12.852469 23.674219 C -26.411063 15.85 -32.641531 1.260156 -26.770438 -8.907813 C -20.899344 -19.079688 -5.149344 -20.974219 8.40925 -13.146094 C 21.967844 -5.317969 28.198312 9.267969 22.327219 19.435937 Z M 22.327219 19.435937 " transform="matrix(1,0,0,-1,37.622,128.1)"/>
<path style="fill:none;stroke-width:0.3985;stroke-linecap:butt;stroke-linejoin:miter;stroke:rgb(0%,50%,50%);stroke-opacity:1;stroke-dasharray:2.98883,2.98883;stroke-miterlimit:10;" d="M -26.770438 -8.907813 L 34.604562 26.525781 " transform="matrix(1,0,0,-1,37.622,128.1)"/>
<path style="fill:none;stroke-width:0.99628;stroke-linecap:butt;stroke-linejoin:miter;stroke:rgb(0%,0%,50%);stroke-opacity:1;stroke-miterlimit:10;" d="M 8.417062 34.420312 C -1.750906 40.291406 -16.34075 34.057031 -24.168875 20.502344 C -31.997 6.94375 -30.098563 -8.80625 -19.930594 -14.677344 C -9.762625 -20.548438 4.827219 -14.317969 12.655344 -0.759375 C 20.483469 12.799219 18.585031 28.549219 8.417062 34.420312 Z M 8.417062 34.420312 " transform="matrix(1,0,0,-1,37.622,128.1)"/>
<path style="fill:none;stroke-width:0.3985;stroke-linecap:butt;stroke-linejoin:miter;stroke:rgb(0%,50%,50%);stroke-opacity:1;stroke-dasharray:2.98883,2.98883;stroke-miterlimit:10;" d="M -19.930594 -14.677344 L 15.503 46.69375 " transform="matrix(1,0,0,-1,37.622,128.1)"/>
<path style=" stroke:none;fill-rule:nonzero;fill:rgb(0%,0%,0%);fill-opacity:1;" d="M 26.992188 128.101562 C 26.992188 127.707031 26.675781 127.390625 26.285156 127.390625 C 25.890625 127.390625 25.574219 127.707031 25.574219 128.101562 C 25.574219 128.492188 25.890625 128.808594 26.285156 128.808594 C 26.675781 128.808594 26.992188 128.492188 26.992188 128.101562 Z M 26.992188 128.101562 "/>
<path style="fill:none;stroke-width:0.3985;stroke-linecap:butt;stroke-linejoin:miter;stroke:rgb(0%,50%,50%);stroke-opacity:1;stroke-miterlimit:10;" d="M 33.307687 -0.0015625 C 33.307687 7.834375 31.245187 15.5375 27.327219 22.322656 " transform="matrix(1,0,0,-1,37.622,128.1)"/>
<g style="fill:rgb(0%,50%,50%);fill-opacity:1;">
  <use xlink:href="#glyph2-1" x="75.594" y="118.828"/>
  <use xlink:href="#glyph2-2" x="87.300499" y="118.828"/>
</g>
<path style="fill:none;stroke-width:0.99628;stroke-linecap:butt;stroke-linejoin:miter;stroke:rgb(79.998779%,39.99939%,0%);stroke-opacity:1;stroke-miterlimit:10;" d="M 15.146938 0.00075 C 15.146938 8.364031 8.365688 15.145281 -0.0015 15.145281 C -8.364781 15.145281 -15.146031 8.364031 -15.146031 0.00075 C -15.146031 -8.366438 -8.364781 -15.147688 -0.0015 -15.147688 C 8.365688 -15.147688 15.146938 -8.366438 15.146938 0.00075 Z M 15.146938 0.00075 " transform="matrix(1,0,0,-1,194.689,115.532)"/>
<g style="fill:rgb(79.998779%,39.99939%,0%);fill-opacity:1;">
  <use xlink:href="#glyph3-1" x="184.823" y="121.042"/>
</g>
<g style="fill:rgb(79.998779%,39.99939%,0%);fill-opacity:1;">
  <use xlink:href="#glyph1-2" x="197.336" y="124.142"/>
</g>
<g clip-path="url(#clip4)" clip-rule="nonzero">
<path style="fill:none;stroke-width:0.99628;stroke-linecap:butt;stroke-linejoin:miter;stroke:rgb(0%,0%,0%);stroke-opacity:1;stroke-miterlimit:10;" d="M 21.260219 -41.901594 L -21.259312 -41.901594 C -23.462437 -41.901594 -25.243687 -43.68675 -25.243687 -45.885969 L -25.243687 -67.49925 C -25.243687 -69.702375 -23.462437 -71.483625 -21.259312 -71.483625 L 21.260219 -71.483625 C 23.459438 -71.483625 25.244594 -69.702375 25.244594 -67.49925 L 25.244594 -45.885969 C 25.244594 -43.68675 23.459438 -41.901594 21.260219 -41.901594 Z M 21.260219 -41.901594 " transform="matrix(1,0,0,-1,194.689,115.532)"/>
</g>
<g style="fill:rgb(0%,0%,0%);fill-opacity:1;">
  <use xlink:href="#glyph4-1" x="178.558" y="168.226"/>
</g>
<g style="fill:rgb(0%,0%,0%);fill-opacity:1;">
  <use xlink:href="#glyph5-1" x="185.753" y="169.721"/>
</g>
<g style="fill:rgb(0%,0%,0%);fill-opacity:1;">
  <use xlink:href="#glyph4-2" x="190.165" y="168.226"/>
</g>
<g style="fill:rgb(0%,0%,0%);fill-opacity:1;">
  <use xlink:href="#glyph4-1" x="196.250156" y="168.226"/>
</g>
<g style="fill:rgb(0%,0%,0%);fill-opacity:1;">
  <use xlink:href="#glyph5-2" x="203.448" y="169.721"/>
</g>
<g style="fill:rgb(0%,0%,0%);fill-opacity:1;">
  <use xlink:href="#glyph4-2" x="208.053" y="168.226"/>
</g>
<g style="fill:rgb(0%,0%,0%);fill-opacity:1;">
  <use xlink:href="#glyph4-1" x="176.802" y="180.181"/>
</g>
<g style="fill:rgb(0%,0%,0%);fill-opacity:1;">
  <use xlink:href="#glyph5-3" x="183.998" y="181.676"/>
</g>
<g style="fill:rgb(0%,0%,0%);fill-opacity:1;">
  <use xlink:href="#glyph4-2" x="189.286" y="180.181"/>
</g>
<g style="fill:rgb(0%,0%,0%);fill-opacity:1;">
  <use xlink:href="#glyph6-1" x="195.374" y="180.181"/>
</g>
<g style="fill:rgb(0%,0%,0%);fill-opacity:1;">
  <use xlink:href="#glyph7-1" x="199.248" y="180.181"/>
</g>
<g style="fill:rgb(0%,0%,0%);fill-opacity:1;">
  <use xlink:href="#glyph5-4" x="203.881" y="181.676"/>
</g>
<g style="fill:rgb(0%,0%,0%);fill-opacity:1;">
  <use xlink:href="#glyph6-2" x="208.701" y="180.181"/>
</g>
<path style="fill:none;stroke-width:1.99255;stroke-linecap:butt;stroke-linejoin:miter;stroke:rgb(50%,50%,50%);stroke-opacity:1;stroke-miterlimit:10;" d="M 139.635219 41.348406 C 123.600063 70.778094 95.268031 86.75075 61.787563 85.239031 " transform="matrix(1,0,0,-1,194.689,115.532)"/>
<path style=" stroke:none;fill-rule:nonzero;fill:rgb(50%,50%,50%);fill-opacity:1;" d="M 336.421875 78.03125 L 336.144531 70.195312 L 334.324219 74.183594 L 329.988281 73.550781 "/>
<path style=" stroke:none;fill-rule:nonzero;fill:rgb(50%,50%,50%);fill-opacity:1;" d="M 252.097656 30.492188 L 259.261719 33.679688 L 256.476562 30.292969 L 258.945312 26.671875 "/>
<g style="fill:rgb(0%,0%,0%);fill-opacity:1;">
  <use xlink:href="#glyph7-2" x="273.299" y="64.102"/>
</g>
<g style="fill:rgb(0%,0%,0%);fill-opacity:1;">
  <use xlink:href="#glyph8-1" x="279.533" y="60.487"/>
</g>
<g style="fill:rgb(0%,0%,0%);fill-opacity:1;">
  <use xlink:href="#glyph5-5" x="282.646" y="60.487"/>
</g>
<g style="fill:rgb(0%,0%,0%);fill-opacity:1;">
  <use xlink:href="#glyph8-2" x="287.571" y="60.487"/>
</g>
<g style="fill:rgb(0%,0%,0%);fill-opacity:1;">
  <use xlink:href="#glyph6-3" x="293.95" y="64.102"/>
</g>
<g style="fill:rgb(0%,0%,0%);fill-opacity:1;">
  <use xlink:href="#glyph7-3" x="306.68" y="64.102"/>
</g>
<g style="fill:rgb(0%,0%,0%);fill-opacity:1;">
  <use xlink:href="#glyph5-6" x="311.557" y="65.597"/>
</g>
<g style="fill:rgb(0%,0%,0%);fill-opacity:1;">
  <use xlink:href="#glyph4-3" x="316.171" y="27.687"/>
  <use xlink:href="#glyph4-4" x="318.93861" y="27.687"/>
  <use xlink:href="#glyph4-5" x="327.240445" y="27.687"/>
</g>
<g style="fill:rgb(0%,0%,0%);fill-opacity:1;">
  <use xlink:href="#glyph4-6" x="333.054618" y="27.687"/>
  <use xlink:href="#glyph4-7" x="337.481998" y="27.687"/>
  <use xlink:href="#glyph4-8" x="341.356453" y="27.687"/>
  <use xlink:href="#glyph4-9" x="346.891673" y="27.687"/>
</g>
<g style="fill:rgb(0%,0%,0%);fill-opacity:1;">
  <use xlink:href="#glyph4-10" x="316.876" y="37.65"/>
  <use xlink:href="#glyph4-11" x="319.920571" y="37.65"/>
  <use xlink:href="#glyph4-12" x="324.901871" y="37.65"/>
  <use xlink:href="#glyph4-4" x="328.804221" y="37.65"/>
</g>
<g style="fill:rgb(0%,0%,0%);fill-opacity:1;">
  <use xlink:href="#glyph4-8" x="336.827103" y="37.65"/>
  <use xlink:href="#glyph4-13" x="342.362323" y="37.65"/>
  <use xlink:href="#glyph4-14" x="345.129934" y="37.65"/>
</g>
<path style="fill:none;stroke-width:1.99255;stroke-linecap:butt;stroke-linejoin:miter;stroke:rgb(50%,50%,50%);stroke-opacity:1;stroke-miterlimit:10;" d="M 90.311 0.00075 L 20.02975 0.00075 " transform="matrix(1,0,0,-1,194.689,115.532)"/>
<path style=" stroke:none;fill-rule:nonzero;fill:rgb(50%,50%,50%);fill-opacity:1;" d="M 210.332031 115.53125 L 217.347656 119.039062 L 214.71875 115.53125 L 217.347656 112.023438 "/>
<g style="fill:rgb(0%,0%,0%);fill-opacity:1;">
  <use xlink:href="#glyph4-3" x="230.342" y="103.079"/>
  <use xlink:href="#glyph4-4" x="233.10961" y="103.079"/>
  <use xlink:href="#glyph4-5" x="241.411445" y="103.079"/>
</g>
<g style="fill:rgb(0%,0%,0%);fill-opacity:1;">
  <use xlink:href="#glyph4-6" x="247.225618" y="103.079"/>
  <use xlink:href="#glyph4-7" x="251.652998" y="103.079"/>
  <use xlink:href="#glyph4-8" x="255.527453" y="103.079"/>
  <use xlink:href="#glyph4-9" x="261.062673" y="103.079"/>
</g>
<g style="fill:rgb(0%,0%,0%);fill-opacity:1;">
  <use xlink:href="#glyph4-10" x="231.048" y="113.042"/>
  <use xlink:href="#glyph4-11" x="234.092571" y="113.042"/>
  <use xlink:href="#glyph4-12" x="239.073871" y="113.042"/>
  <use xlink:href="#glyph4-4" x="242.976221" y="113.042"/>
</g>
<g style="fill:rgb(0%,0%,0%);fill-opacity:1;">
  <use xlink:href="#glyph4-8" x="250.999103" y="113.042"/>
  <use xlink:href="#glyph4-13" x="256.534323" y="113.042"/>
  <use xlink:href="#glyph4-14" x="259.301934" y="113.042"/>
</g>
<g style="fill:rgb(0%,0%,0%);fill-opacity:1;">
  <use xlink:href="#glyph4-4" x="232.958" y="124.151"/>
  <use xlink:href="#glyph4-14" x="241.259835" y="124.151"/>
  <use xlink:href="#glyph4-9" x="246.241135" y="124.151"/>
  <use xlink:href="#glyph4-7" x="250.170384" y="124.151"/>
  <use xlink:href="#glyph4-6" x="254.044839" y="124.151"/>
  <use xlink:href="#glyph4-12" x="258.472219" y="124.151"/>
</g>
<g style="fill:rgb(0%,0%,0%);fill-opacity:1;">
  <use xlink:href="#glyph4-3" x="229.222" y="134.113"/>
  <use xlink:href="#glyph4-15" x="231.98961" y="134.113"/>
</g>
<g style="fill:rgb(0%,0%,0%);fill-opacity:1;">
  <use xlink:href="#glyph4-7" x="237.245878" y="134.113"/>
  <use xlink:href="#glyph4-6" x="241.120333" y="134.113"/>
  <use xlink:href="#glyph4-16" x="245.547713" y="134.113"/>
  <use xlink:href="#glyph4-12" x="250.529013" y="134.113"/>
  <use xlink:href="#glyph4-14" x="254.431363" y="134.113"/>
  <use xlink:href="#glyph4-13" x="259.412663" y="134.113"/>
  <use xlink:href="#glyph4-9" x="262.180273" y="134.113"/>
</g>
<path style="fill:none;stroke-width:1.99255;stroke-linecap:butt;stroke-linejoin:miter;stroke:rgb(50%,50%,50%);stroke-opacity:1;stroke-miterlimit:10;" d="M -139.591344 42.633562 C -123.372594 71.574969 -94.90775 87.180437 -61.78275 85.289812 " transform="matrix(1,0,0,-1,194.689,115.532)"/>
<path style=" stroke:none;fill-rule:nonzero;fill:rgb(50%,50%,50%);fill-opacity:1;" d="M 52.953125 76.722656 L 59.441406 72.320312 L 55.097656 72.898438 L 53.324219 68.890625 "/>
<path style=" stroke:none;fill-rule:nonzero;fill:rgb(50%,50%,50%);fill-opacity:1;" d="M 137.28125 30.492188 L 130.480469 26.589844 L 132.90625 30.242188 L 130.078125 33.59375 "/>
<g style="fill:rgb(0%,0%,0%);fill-opacity:1;">
  <use xlink:href="#glyph6-4" x="45.349" y="41.647"/>
</g>
<g style="fill:rgb(0%,0%,0%);fill-opacity:1;">
  <use xlink:href="#glyph7-4" x="56.407" y="41.647"/>
</g>
<g style="fill:rgb(0%,0%,0%);fill-opacity:1;">
  <use xlink:href="#glyph4-17" x="69.064" y="41.647"/>
</g>
<g style="fill:rgb(0%,0%,0%);fill-opacity:1;">
  <use xlink:href="#glyph7-2" x="69.092" y="63.334"/>
</g>
<g style="fill:rgb(0%,0%,0%);fill-opacity:1;">
  <use xlink:href="#glyph4-18" x="75.325" y="63.334"/>
</g>
<g style="fill:rgb(0%,0%,0%);fill-opacity:1;">
  <use xlink:href="#glyph7-5" x="79.2" y="63.334"/>
</g>
<g style="fill:rgb(0%,0%,0%);fill-opacity:1;">
  <use xlink:href="#glyph4-19" x="85.682" y="63.334"/>
</g>
<g style="fill:rgb(0%,0%,0%);fill-opacity:1;">
  <use xlink:href="#glyph4-20" x="91.768152" y="63.334"/>
</g>
<g style="fill:rgb(0%,0%,0%);fill-opacity:1;">
  <use xlink:href="#glyph7-2" x="101.733" y="63.334"/>
</g>
<g style="fill:rgb(0%,0%,0%);fill-opacity:1;">
  <use xlink:href="#glyph4-18" x="107.967" y="63.334"/>
</g>
<g style="fill:rgb(0%,0%,0%);fill-opacity:1;">
  <use xlink:href="#glyph6-5" x="111.841" y="63.334"/>
</g>
<g style="fill:rgb(0%,0%,0%);fill-opacity:1;">
  <use xlink:href="#glyph7-5" x="119.59" y="63.334"/>
</g>
<g style="fill:rgb(0%,0%,0%);fill-opacity:1;">
  <use xlink:href="#glyph4-19" x="126.072" y="63.334"/>
</g>
<path style="fill:none;stroke-width:1.99255;stroke-linecap:butt;stroke-linejoin:miter;stroke:rgb(50%,50%,50%);stroke-opacity:1;stroke-miterlimit:10;" d="M -0.0015 15.645281 L -0.0015 50.164812 " transform="matrix(1,0,0,-1,194.689,115.532)"/>
<path style=" stroke:none;fill-rule:nonzero;fill:rgb(50%,50%,50%);fill-opacity:1;" d="M 194.6875 60.984375 L 191.183594 68 L 194.6875 65.367188 L 198.195312 68 "/>
<g style="fill:rgb(0%,0%,0%);fill-opacity:1;">
  <use xlink:href="#glyph7-6" x="197.179" y="82.928"/>
</g>
<g style="fill:rgb(0%,0%,0%);fill-opacity:1;">
  <use xlink:href="#glyph5-7" x="202.469" y="84.422"/>
</g>
<g style="fill:rgb(0%,0%,0%);fill-opacity:1;">
  <use xlink:href="#glyph4-18" x="209.693" y="82.928"/>
</g>
<g style="fill:rgb(0%,0%,0%);fill-opacity:1;">
  <use xlink:href="#glyph6-4" x="215.228" y="82.928"/>
</g>
<g style="fill:rgb(0%,0%,0%);fill-opacity:1;">
  <use xlink:href="#glyph7-7" x="224.144" y="82.928"/>
</g>
<g style="fill:rgb(0%,0%,0%);fill-opacity:1;">
  <use xlink:href="#glyph4-17" x="234.66" y="82.928"/>
  <use xlink:href="#glyph4-19" x="239.6413" y="82.928"/>
</g>
<path style="fill:none;stroke-width:1.99255;stroke-linecap:butt;stroke-linejoin:miter;stroke:rgb(50%,50%,50%);stroke-opacity:1;stroke-miterlimit:10;" d="M -88.774937 -4.979719 L -20.028844 -4.979719 " transform="matrix(1,0,0,-1,194.689,115.532)"/>
<path style=" stroke:none;fill-rule:nonzero;fill:rgb(50%,50%,50%);fill-opacity:1;" d="M 179.042969 120.511719 L 172.03125 117.007812 L 174.660156 120.511719 L 172.03125 124.019531 "/>
<g style="fill:rgb(0%,0%,0%);fill-opacity:1;">
  <use xlink:href="#glyph9-1" x="132.319" y="123.004"/>
</g>
<g style="fill:rgb(0%,0%,0%);fill-opacity:1;">
  <use xlink:href="#glyph4-21" x="140.621" y="131.03"/>
</g>
<g style="fill:rgb(0%,0%,0%);fill-opacity:1;">
  <use xlink:href="#glyph7-5" x="146.156" y="131.03"/>
</g>
<path style="fill:none;stroke-width:1.99255;stroke-linecap:butt;stroke-linejoin:miter;stroke:rgb(50%,50%,50%);stroke-opacity:1;stroke-miterlimit:10;" d="M -15.646031 4.981219 L -84.392125 4.981219 " transform="matrix(1,0,0,-1,194.689,115.532)"/>
<path style=" stroke:none;fill-rule:nonzero;fill:rgb(50%,50%,50%);fill-opacity:1;" d="M 105.914062 110.550781 L 112.925781 114.058594 L 110.296875 110.550781 L 112.925781 107.042969 "/>
<g style="fill:rgb(0%,0%,0%);fill-opacity:1;">
  <use xlink:href="#glyph7-6" x="119.311" y="105.57"/>
</g>
<g style="fill:rgb(0%,0%,0%);fill-opacity:1;">
  <use xlink:href="#glyph5-7" x="124.6" y="107.064"/>
</g>
<g style="fill:rgb(0%,0%,0%);fill-opacity:1;">
  <use xlink:href="#glyph4-18" x="131.824" y="105.57"/>
</g>
<g style="fill:rgb(0%,0%,0%);fill-opacity:1;">
  <use xlink:href="#glyph6-4" x="137.359" y="105.57"/>
</g>
<g style="fill:rgb(0%,0%,0%);fill-opacity:1;">
  <use xlink:href="#glyph7-4" x="146.275" y="105.57"/>
</g>
<g style="fill:rgb(0%,0%,0%);fill-opacity:1;">
  <use xlink:href="#glyph4-17" x="156.791" y="105.57"/>
  <use xlink:href="#glyph4-19" x="161.7723" y="105.57"/>
</g>
<path style="fill:none;stroke-width:1.99255;stroke-linecap:butt;stroke-linejoin:miter;stroke:rgb(50%,50%,50%);stroke-opacity:1;stroke-miterlimit:10;" d="M 4.982875 -15.643781 L 4.982875 -37.018781 " transform="matrix(1,0,0,-1,194.689,115.532)"/>
<path style=" stroke:none;fill-rule:nonzero;fill:rgb(50%,50%,50%);fill-opacity:1;" d="M 199.671875 156.9375 L 203.175781 149.921875 L 199.671875 152.550781 L 196.164062 149.921875 "/>
<g style="fill:rgb(0%,0%,0%);fill-opacity:1;">
  <use xlink:href="#glyph7-6" x="202.161" y="146.768"/>
</g>
<g style="fill:rgb(0%,0%,0%);fill-opacity:1;">
  <use xlink:href="#glyph10-1" x="207.45" y="148.262"/>
</g>
<path style="fill:none;stroke-width:1.99255;stroke-linecap:butt;stroke-linejoin:miter;stroke:rgb(50%,50%,50%);stroke-opacity:1;stroke-miterlimit:10;" d="M -4.981969 -15.643781 L -4.981969 -37.018781 " transform="matrix(1,0,0,-1,194.689,115.532)"/>
<path style=" stroke:none;fill-rule:nonzero;fill:rgb(50%,50%,50%);fill-opacity:1;" d="M 189.707031 156.9375 L 193.214844 149.921875 L 189.707031 152.550781 L 186.199219 149.921875 "/>
<g style="fill:rgb(0%,0%,0%);fill-opacity:1;">
  <use xlink:href="#glyph7-6" x="170.004" y="146.27"/>
</g>
<g style="fill:rgb(0%,0%,0%);fill-opacity:1;">
  <use xlink:href="#glyph5-8" x="175.293" y="147.764"/>
</g>
<g style="fill:rgb(0%,0%,0%);fill-opacity:1;">
  <use xlink:href="#glyph11-1" x="182.363" y="148.761"/>
</g>
</g>
</svg>
